{"totalResults":669,"page":1,"totalPages":28,"perPage":24,"cursor":"AoMIQPXdMz8FNjAwQW1hcmFudGhhY2VhZUFtYXJhbnRodXNhbmFjYXJkYW5hLVRheG9uXzExMTk5OTM=","message":"If you would like to download and use the POWO data in a conciencious way, please use our official library pykew [https://github.com/RBGKew/pykew].","results":[{"accepted":true,"author":"L.","kingdom":"Plantae","family":"Amaranthaceae","name":"Amaranthus","rank":"Genus","snippet":" <b>General</b>: <em>Amaranthus</em> (from Gr. αμαρανφος, amaranthos, unfading","url":"/taxon/urn:lsid:ipni.org:names:327362-2","fqId":"urn:lsid:ipni.org:names:327362-2","images":[{"thumbnail":"//d2seqvvyy3b8p2.cloudfront.net/922f994ee4fee5a2502b8b8ea3763a68.jpg","fullsize":"//d2seqvvyy3b8p2.cloudfront.net/e7c3ac63dbebe9afd943af34fdec8419.jpg","caption":"Amaranthus caudatus"},{"thumbnail":"//d2seqvvyy3b8p2.cloudfront.net/4687219885f320472ffc167f33f2a90d.jpg","fullsize":"//d2seqvvyy3b8p2.cloudfront.net/1296ae658cf0fa5ec403f9430a7d913e.jpg","caption":"Amaranthus hybridus"},{"thumbnail":"//d2seqvvyy3b8p2.cloudfront.net/ce0304d54e9785da76a9689728f05083.jpg","fullsize":"//d2seqvvyy3b8p2.cloudfront.net/6d4ad0d8c19b350923990f9b2cbdbc1e.jpg","caption":"Amaranthus viridis"}]},{"accepted":true,"author":"(L.) Costea","kingdom":"Plantae","family":"Amaranthaceae","name":"Amaranthus blitum subsp. oleraceus","rank":"Subspecies","snippet":" <b>General</b>: . Kloos as shown below (<em>Amaranthus</em> lividus var. ascendens","url":"/taxon/urn:lsid:ipni.org:names:1212777-2","fqId":"urn:lsid:ipni.org:names:1212777-2","images":[{"thumbnail":"//d2seqvvyy3b8p2.cloudfront.net/9672b3f050f997de5c800da0b5a641a3.jpg","fullsize":"//d2seqvvyy3b8p2.cloudfront.net/0395243fedb2b82f184bcce1aecdeadf.jpg","caption":"A specimen from Kew's Herbarium"},{"thumbnail":"//d2seqvvyy3b8p2.cloudfront.net/8412cf8dc1de620c46c628d7dc4ec26c.jpg","fullsize":"//d2seqvvyy3b8p2.cloudfront.net/ccb2211835a27c979a2951341a151907.jpg","caption":"A specimen from Kew's Herbarium"}]},{"accepted":true,"author":"Mart. ex Thell.","kingdom":"Plantae","family":"Amaranthaceae","name":"Amaranthus dubius","rank":"Species","snippet":" <b>General</b>: A. dubius is the only known polyploid <em>Amaranthus</em>, but its","url":"/taxon/urn:lsid:ipni.org:names:59493-1","fqId":"urn:lsid:ipni.org:names:59493-1","images":[{"thumbnail":"//d2seqvvyy3b8p2.cloudfront.net/afad1e7f9ba0d84d58c4e18e4cb3df01.jpg","fullsize":"//d2seqvvyy3b8p2.cloudfront.net/62b39570c1e4d133a15bb3c6ed344e6d.jpg","caption":"A specimen from Kew's Herbarium"},{"thumbnail":"//d2seqvvyy3b8p2.cloudfront.net/be9c1f90fbf5b344e091e4cccd639810.jpg","fullsize":"//d2seqvvyy3b8p2.cloudfront.net/88296d383c6fd941ae22b10df0f60fad.jpg","caption":"A specimen from Kew's Herbarium"}]},{"accepted":true,"author":"(L.) DC.","kingdom":"Plantae","family":"Amaranthaceae","name":"Alternanthera sessilis","rank":"Species","snippet":" <b>Common Name</b>: <em>Amaranthus</em> weed","url":"/taxon/urn:lsid:ipni.org:names:1069792-2","fqId":"urn:lsid:ipni.org:names:1069792-2","images":[{"thumbnail":"//storage.googleapis.com/powop-assets/PPA/0601_0650/h0629a_thumbnail.jpg","fullsize":"//storage.googleapis.com/powop-assets/PPA/0601_0650/h0629a_fullsize.jpg","caption":"Alternanthera sessilis (L.) DC."},{"thumbnail":"//storage.googleapis.com/powop-assets/PPA/0601_0650/h0629b_thumbnail.jpg","fullsize":"//storage.googleapis.com/powop-assets/PPA/0601_0650/h0629b_fullsize.jpg","caption":"Alternanthera sessilis (L.) DC."},{"thumbnail":"//storage.googleapis.com/powop-assets/PPA/0601_0650/h0629l_thumbnail.jpg","fullsize":"//storage.googleapis.com/powop-assets/PPA/0601_0650/h0629l_fullsize.jpg","caption":"Alternanthera sessilis (L.) DC."}]},{"accepted":false,"author":"L.H.Bailey","kingdom":"Plantae","family":"Amaranthaceae","name":"Amaranthus abyssinicus","rank":"Species","synonymOf":{"accepted":true,"author":"L.","name":"Amaranthus caudatus","url":"/taxon/urn:lsid:ipni.org:names:316347-2","fqId":"urn:lsid:ipni.org:names:316347-2"},"url":"/taxon/urn:lsid:ipni.org:names:59373-1","fqId":"urn:lsid:ipni.org:names:59373-1"},{"accepted":true,"author":"Henrard","kingdom":"Plantae","family":"Amaranthaceae","name":"Amaranthus acanthobracteatus","rank":"Species","url":"/taxon/urn:lsid:ipni.org:names:60436235-2","fqId":"urn:lsid:ipni.org:names:60436235-2","images":[{"thumbnail":"//d2seqvvyy3b8p2.cloudfront.net/c52f5e0864e43e758a5e25f2b6ad456d.jpg","fullsize":"//d2seqvvyy3b8p2.cloudfront.net/6c69e6014172a8c1e3656bd20f8a6ee3.jpg","caption":"A specimen from Kew's Herbarium"}]},{"accepted":true,"author":"J.D.Sauer","kingdom":"Plantae","family":"Amaranthaceae","name":"Amaranthus acanthochiton","rank":"Species","url":"/taxon/urn:lsid:ipni.org:names:295245-2","fqId":"urn:lsid:ipni.org:names:295245-2","images":[{"thumbnail":"//d2seqvvyy3b8p2.cloudfront.net/6efb4e51b60a2913f624436029679c6c.jpg","fullsize":"//d2seqvvyy3b8p2.cloudfront.net/901b7985fb696eb9df878ab90505fd4c.jpg","caption":"A specimen from Kew's Herbarium"}]},{"accepted":false,"author":"Spreng.","kingdom":"Plantae","family":"Amaranthaceae","name":"Amaranthus acroglochin","rank":"Species","synonymOf":{"accepted":true,"author":"(Poir.) Moq.","name":"Acroglochin persicarioides","url":"/taxon/urn:lsid:ipni.org:names:163313-1","fqId":"urn:lsid:ipni.org:names:163313-1"},"url":"/taxon/urn:lsid:ipni.org:names:59375-1","fqId":"urn:lsid:ipni.org:names:59375-1"},{"accepted":true,"author":"Uline & W.L.Bray","kingdom":"Plantae","family":"Amaranthaceae","name":"Amaranthus acutilobus","rank":"Species","url":"/taxon/urn:lsid:ipni.org:names:10595-2","fqId":"urn:lsid:ipni.org:names:10595-2","images":[{"thumbnail":"//d2seqvvyy3b8p2.cloudfront.net/e94996ccfefe68edccfae7acb0411435.jpg","fullsize":"//d2seqvvyy3b8p2.cloudfront.net/3e29deee9cb6df865cf2e814f4db096a.jpg","caption":"Amaranthus acutilobus"},{"thumbnail":"//d2seqvvyy3b8p2.cloudfront.net/ce2ff697b397f150e6c1533a739f83db.jpg","fullsize":"//d2seqvvyy3b8p2.cloudfront.net/7ad9a8e934fb8b93d57c24181dd5e97b.jpg","caption":"A specimen from Kew's Herbarium"}]},{"accepted":false,"author":"Rchb.","kingdom":"Plantae","family":"Amaranthaceae","name":"Amaranthus adscendens","rank":"Species","synonymOf":{"accepted":true,"name":"Amaranthus blitum subsp. blitum","url":"/taxon/urn:lsid:ipni.org:names:77227930-1","fqId":"urn:lsid:ipni.org:names:77227930-1"},"url":"/taxon/urn:lsid:ipni.org:names:2632642-4","fqId":"urn:lsid:ipni.org:names:2632642-4"},{"accepted":true,"author":"Besser","kingdom":"Plantae","family":"Amaranthaceae","name":"Amaranthus aeneus","rank":"Species","url":"/taxon/urn:lsid:ipni.org:names:59380-1","fqId":"urn:lsid:ipni.org:names:59380-1"},{"accepted":false,"author":"Hochst. & Steud. ex A.Rich.","kingdom":"Plantae","family":"Amaranthaceae","name":"Amaranthus aeruoides","rank":"Species","synonymOf":{"accepted":true,"author":"(L.) Kuntze","name":"Ouret lanata","url":"/taxon/urn:lsid:ipni.org:names:61673-1","fqId":"urn:lsid:ipni.org:names:61673-1"},"url":"/taxon/urn:lsid:ipni.org:names:59381-1","fqId":"urn:lsid:ipni.org:names:59381-1"},{"accepted":false,"author":"Thell.","kingdom":"Plantae","family":"Amaranthaceae","name":"Amaranthus affinis","rank":"Species","synonymOf":{"accepted":true,"name":"Amaranthus asplundii subsp. asplundii","url":"/taxon/urn:lsid:ipni.org:names:77228109-1","fqId":"urn:lsid:ipni.org:names:77228109-1"},"url":"/taxon/urn:lsid:ipni.org:names:10596-2","fqId":"urn:lsid:ipni.org:names:10596-2"},{"accepted":true,"author":"Moq.","kingdom":"Plantae","family":"Amaranthaceae","name":"Amaranthus albiflorus","rank":"Species","url":"/taxon/urn:lsid:ipni.org:names:59383-1","fqId":"urn:lsid:ipni.org:names:59383-1"},{"accepted":false,"author":"Uline & W.L.Bray","kingdom":"Plantae","family":"Amaranthaceae","name":"Amaranthus albomarginatus","rank":"Species","synonymOf":{"accepted":true,"author":"(Moq.) S.Watson","name":"Amaranthus californicus","url":"/taxon/urn:lsid:ipni.org:names:1053905-2","fqId":"urn:lsid:ipni.org:names:1053905-2"},"url":"/taxon/urn:lsid:ipni.org:names:10597-2","fqId":"urn:lsid:ipni.org:names:10597-2"},{"accepted":false,"author":"Rodschied ex F.Dietr.","kingdom":"Plantae","family":"Amaranthaceae","name":"Amaranthus albus","rank":"Species","synonymOf":{"accepted":true,"name":"Amaranthus blitum subsp. blitum","url":"/taxon/urn:lsid:ipni.org:names:77227930-1","fqId":"urn:lsid:ipni.org:names:77227930-1"},"url":"/taxon/urn:lsid:ipni.org:names:59385-1","fqId":"urn:lsid:ipni.org:names:59385-1"},{"accepted":true,"author":"L.","kingdom":"Plantae","family":"Amaranthaceae","name":"Amaranthus albus","rank":"Species","url":"/taxon/urn:lsid:ipni.org:names:327388-2","fqId":"urn:lsid:ipni.org:names:327388-2","images":[{"thumbnail":"//d2seqvvyy3b8p2.cloudfront.net/14db97480efa0c124e66b917cb5a4727.jpg","fullsize":"//d2seqvvyy3b8p2.cloudfront.net/b54a364d03ac0c6d69673432dc6fe2c1.jpg","caption":"Amaranthus albus"},{"thumbnail":"//d2seqvvyy3b8p2.cloudfront.net/68eefc29e83e036c6aa64be3ed143b78.jpg","fullsize":"//d2seqvvyy3b8p2.cloudfront.net/84179ba85dfb80aa61f76562c62d6fac.jpg","caption":"Amaranthus albus"},{"thumbnail":"//d2seqvvyy3b8p2.cloudfront.net/68d74e0f78223e5092c97756a5fb31e0.jpg","fullsize":"//d2seqvvyy3b8p2.cloudfront.net/c399755015be9f7ee888f9c31c7a18eb.jpg","caption":"Lateral view of Amaranthus albus seeds"}]},{"accepted":false,"author":"Thunb.","kingdom":"Plantae","family":"Amaranthaceae","name":"Amaranthus albus","rank":"Species","synonymOf":{"accepted":true,"author":"Moq.","name":"Amaranthus thunbergii","url":"/taxon/urn:lsid:ipni.org:names:327387-2","fqId":"urn:lsid:ipni.org:names:327387-2"},"url":"/taxon/urn:lsid:ipni.org:names:59386-1","fqId":"urn:lsid:ipni.org:names:59386-1"},{"accepted":false,"author":"E.H.L.Krause","kingdom":"Plantae","family":"Amaranthaceae","name":"Amaranthus alius","rank":"Species","synonymOf":{"accepted":true,"name":"Amaranthus blitum subsp. blitum","url":"/taxon/urn:lsid:ipni.org:names:77227930-1","fqId":"urn:lsid:ipni.org:names:77227930-1"},"url":"/taxon/urn:lsid:ipni.org:names:59389-1","fqId":"urn:lsid:ipni.org:names:59389-1"},{"accepted":false,"author":"Hochst. ex A.Br. & C.D.Bouché","kingdom":"Plantae","family":"Amaranthaceae","name":"Amaranthus alopecurus","rank":"Species","synonymOf":{"accepted":true,"author":"L.","name":"Amaranthus caudatus","url":"/taxon/urn:lsid:ipni.org:names:316347-2","fqId":"urn:lsid:ipni.org:names:316347-2"},"url":"/taxon/urn:lsid:ipni.org:names:2632660-4","fqId":"urn:lsid:ipni.org:names:2632660-4"},{"accepted":false,"author":"Riddell","kingdom":"Plantae","family":"Amaranthaceae","name":"Amaranthus altissimus","rank":"Species","synonymOf":{"accepted":true,"author":"(Moq.) J.D.Sauer","name":"Amaranthus tuberculatus","url":"/taxon/urn:lsid:ipni.org:names:59699-1","fqId":"urn:lsid:ipni.org:names:59699-1"},"url":"/taxon/urn:lsid:ipni.org:names:327373-2","fqId":"urn:lsid:ipni.org:names:327373-2"},{"accepted":false,"author":"Standl.","kingdom":"Plantae","family":"Amaranthaceae","name":"Amaranthus ambigens","rank":"Species","synonymOf":{"accepted":true,"author":"(Moq.) J.D.Sauer","name":"Amaranthus tuberculatus","url":"/taxon/urn:lsid:ipni.org:names:59699-1","fqId":"urn:lsid:ipni.org:names:59699-1"},"url":"/taxon/urn:lsid:ipni.org:names:10601-2","fqId":"urn:lsid:ipni.org:names:10601-2"},{"accepted":false,"author":"Buch.-Ham. ex Wall.","kingdom":"Plantae","family":"Amaranthaceae","name":"Amaranthus amboinicus","rank":"Species","synonymOf":{"accepted":true,"author":"L.","name":"Amaranthus tricolor","url":"/taxon/urn:lsid:ipni.org:names:327386-2","fqId":"urn:lsid:ipni.org:names:327386-2"},"url":"/taxon/urn:lsid:ipni.org:names:2632663-4","fqId":"urn:lsid:ipni.org:names:2632663-4"},{"accepted":false,"author":"Hook.f.","kingdom":"Plantae","family":"Amaranthaceae","name":"Amaranthus anacardana","rank":"Species","synonymOf":{"accepted":true,"author":"L.","name":"Amaranthus cruentus","url":"/taxon/urn:lsid:ipni.org:names:10631-2","fqId":"urn:lsid:ipni.org:names:10631-2"},"url":"/taxon/urn:lsid:ipni.org:names:59394-1","fqId":"urn:lsid:ipni.org:names:59394-1"}]}