{"totalResults":247,"page":1,"totalPages":11,"perPage":24,"cursor":"AoMIQQre8T02MDBBcmVjYWNlYWVDaGFtYWVkb3JlYWJpbG9iYSxUYXhvbl81NzI1ODE=","message":"If you would like to download and use the POWO data in a conciencious way, please use our official library pykew [https://github.com/RBGKew/pykew].","results":[{"accepted":true,"author":"Willd.","kingdom":"Plantae","family":"Arecaceae","name":"Chamaedorea","rank":"Genus","url":"/taxon/urn:lsid:ipni.org:names:331165-2","fqId":"urn:lsid:ipni.org:names:331165-2","images":[{"thumbnail":"//d2seqvvyy3b8p2.cloudfront.net/02adba5faf4dab2422c3995be8fd7f54.jpg","fullsize":"//d2seqvvyy3b8p2.cloudfront.net/a5b5d554592668ff41644c9f6972cf32.jpg","caption":"Chamaedorea"},{"thumbnail":"//d2seqvvyy3b8p2.cloudfront.net/fb24c7cb634394c1e2fd83e7631479cb.jpg","fullsize":"//d2seqvvyy3b8p2.cloudfront.net/7753331a392190029e191045a32c3642.jpg","caption":"Chamaedorea"},{"thumbnail":"//d2seqvvyy3b8p2.cloudfront.net/5c7284f65fbd877af3bf8445974be579.jpg","fullsize":"//d2seqvvyy3b8p2.cloudfront.net/83ccb5b46380f51a0c32e8ac7a5ed907.jpg","caption":"Chamaedorea pinnatifrons"}]},{"accepted":true,"author":"H.Wendl.","kingdom":"Plantae","family":"Arecaceae","name":"Chamaedorea geonomiformis","rank":"Species","snippet":" <b>Common Name</b>: necklace <em>chamaedorea</em>","url":"/taxon/urn:lsid:ipni.org:names:665765-1","fqId":"urn:lsid:ipni.org:names:665765-1","images":[{"thumbnail":"//d2seqvvyy3b8p2.cloudfront.net/3df3202c1138342b50ab3bea4b32a241.jpg","fullsize":"//d2seqvvyy3b8p2.cloudfront.net/ffbb73e294731d791d1c6563ef83fc08.jpg","caption":"A specimen from Kew's Herbarium"},{"thumbnail":"//d2seqvvyy3b8p2.cloudfront.net/daafbbcd0d781e1702c7b7f12d7b3318.jpg","fullsize":"//d2seqvvyy3b8p2.cloudfront.net/54260ece83dde98d47b0a6659a3f43de.jpg","caption":"A specimen from Kew's Herbarium"}]},{"accepted":true,"author":"(Dammer) Burret","kingdom":"Plantae","family":"Arecaceae","name":"Chamaedorea adscendens","rank":"Species","url":"/taxon/urn:lsid:ipni.org:names:54826-2","fqId":"urn:lsid:ipni.org:names:54826-2"},{"accepted":false,"author":"Standl. & Steyerm.","kingdom":"Plantae","family":"Arecaceae","name":"Chamaedorea aequalis","rank":"Species","synonymOf":{"accepted":true,"author":"Mart.","name":"Chamaedorea liebmannii","url":"/taxon/urn:lsid:ipni.org:names:54899-2","fqId":"urn:lsid:ipni.org:names:54899-2"},"url":"/taxon/urn:lsid:ipni.org:names:54827-2","fqId":"urn:lsid:ipni.org:names:54827-2"},{"accepted":false,"author":"Liebm.","kingdom":"Plantae","family":"Arecaceae","name":"Chamaedorea affinis","rank":"Species","synonymOf":{"accepted":true,"author":"Mart.","name":"Chamaedorea elatior","url":"/taxon/urn:lsid:ipni.org:names:54864-2","fqId":"urn:lsid:ipni.org:names:54864-2"},"url":"/taxon/urn:lsid:ipni.org:names:54828-2","fqId":"urn:lsid:ipni.org:names:54828-2"},{"accepted":false,"author":"Standl. & Steyerm.","kingdom":"Plantae","family":"Arecaceae","name":"Chamaedorea aguilariana","rank":"Species","synonymOf":{"accepted":true,"author":"(Jacq.) Oerst.","name":"Chamaedorea pinnatifrons","url":"/taxon/urn:lsid:ipni.org:names:665826-1","fqId":"urn:lsid:ipni.org:names:665826-1"},"url":"/taxon/urn:lsid:ipni.org:names:54829-2","fqId":"urn:lsid:ipni.org:names:54829-2"},{"accepted":true,"author":"Schaedtler","kingdom":"Plantae","family":"Arecaceae","name":"Chamaedorea ahrenbergii","rank":"Species","url":"/taxon/urn:lsid:ipni.org:names:77239162-1","fqId":"urn:lsid:ipni.org:names:77239162-1","images":[{"thumbnail":"//d2seqvvyy3b8p2.cloudfront.net/5c632fc7df6ce2393f9f2c86ef3347d4.jpg","fullsize":"//d2seqvvyy3b8p2.cloudfront.net/332a109f98d67bab385b507172a85220.jpg","caption":"A specimen from Kew's Herbarium"}]},{"accepted":true,"author":"L.H.Bailey","kingdom":"Plantae","family":"Arecaceae","name":"Chamaedorea allenii","rank":"Species","url":"/taxon/urn:lsid:ipni.org:names:54830-2","fqId":"urn:lsid:ipni.org:names:54830-2","images":[{"thumbnail":"//d2seqvvyy3b8p2.cloudfront.net/56163e915458b3ae733d28007cb401d5.jpg","fullsize":"//d2seqvvyy3b8p2.cloudfront.net/7b18a16586b4ca917249df66b2dfcd5e.jpg","caption":"A specimen from Kew's Herbarium"}]},{"accepted":true,"author":"H.Wendl.","kingdom":"Plantae","family":"Arecaceae","name":"Chamaedorea alternans","rank":"Species","url":"/taxon/urn:lsid:ipni.org:names:54831-2","fqId":"urn:lsid:ipni.org:names:54831-2","images":[{"thumbnail":"//d2seqvvyy3b8p2.cloudfront.net/8016c4807e9ba7cb17d5b8845923cd9c.jpg","fullsize":"//d2seqvvyy3b8p2.cloudfront.net/9bf04e0d3c79dd8d35f367f6eba3a788.jpg","caption":"A specimen from Kew's Herbarium"}]},{"accepted":true,"author":"H.Wendl. ex Dammer","kingdom":"Plantae","family":"Arecaceae","name":"Chamaedorea amabilis","rank":"Species","url":"/taxon/urn:lsid:ipni.org:names:54832-2","fqId":"urn:lsid:ipni.org:names:54832-2","images":[{"thumbnail":"//d2seqvvyy3b8p2.cloudfront.net/4665ab7803b3a1618235692f022bd538.jpg","fullsize":"//d2seqvvyy3b8p2.cloudfront.net/07545d793f5dce4cfd9b36e679c5cb8d.jpg","caption":"A specimen from Kew's Herbarium"}]},{"accepted":false,"author":"(Kuntze) Dammer","kingdom":"Plantae","family":"Arecaceae","name":"Chamaedorea amazonica","rank":"Species","synonymOf":{"accepted":true,"author":"Mart.","name":"Chamaedorea pauciflora","url":"/taxon/urn:lsid:ipni.org:names:54928-2","fqId":"urn:lsid:ipni.org:names:54928-2"},"url":"/taxon/urn:lsid:ipni.org:names:54834-2","fqId":"urn:lsid:ipni.org:names:54834-2"},{"accepted":true,"author":"Linden","kingdom":"Plantae","family":"Arecaceae","name":"Chamaedorea andreana","rank":"Species","url":"/taxon/urn:lsid:ipni.org:names:54835-2","fqId":"urn:lsid:ipni.org:names:54835-2"},{"accepted":true,"author":"Hodel","kingdom":"Plantae","family":"Arecaceae","name":"Chamaedorea anemophila","rank":"Species","url":"/taxon/urn:lsid:ipni.org:names:306927-2","fqId":"urn:lsid:ipni.org:names:306927-2"},{"accepted":true,"author":"Burret","kingdom":"Plantae","family":"Arecaceae","name":"Chamaedorea angustisecta","rank":"Species","url":"/taxon/urn:lsid:ipni.org:names:54836-2","fqId":"urn:lsid:ipni.org:names:54836-2","images":[{"thumbnail":"//d2seqvvyy3b8p2.cloudfront.net/e057f77472e84d7a3fd4dd47df610b63.jpg","fullsize":"//d2seqvvyy3b8p2.cloudfront.net/3de97f310e6d9813e0b629208f8ad6f0.jpg","caption":"A specimen from Kew's Herbarium"}]},{"accepted":false,"author":"Burret","kingdom":"Plantae","family":"Arecaceae","name":"Chamaedorea anomospadix","rank":"Species","synonymOf":{"accepted":true,"author":"Liebm.","name":"Chamaedorea tepejilote","url":"/taxon/urn:lsid:ipni.org:names:54964-2","fqId":"urn:lsid:ipni.org:names:54964-2"},"url":"/taxon/urn:lsid:ipni.org:names:54837-2","fqId":"urn:lsid:ipni.org:names:54837-2"},{"accepted":true,"author":"H.Wendl.","kingdom":"Plantae","family":"Arecaceae","name":"Chamaedorea arenbergiana","rank":"Species","url":"/taxon/urn:lsid:ipni.org:names:54838-2","fqId":"urn:lsid:ipni.org:names:54838-2","images":[{"thumbnail":"//d2seqvvyy3b8p2.cloudfront.net/f97c282801b01e527623ed5121da527f.jpg","fullsize":"//d2seqvvyy3b8p2.cloudfront.net/1ac74fc34a9eecaff0b4a46fe5f759b3.jpg","caption":"A specimen from Kew's Herbarium"},{"thumbnail":"//d2seqvvyy3b8p2.cloudfront.net/3299a60c1c344f909b4a5190c08517cb.jpg","fullsize":"//d2seqvvyy3b8p2.cloudfront.net/160477458bfcc4aa3425cd1dbb5a93d4.jpg","caption":"C. latifolia"}]},{"accepted":false,"author":"H.Wendl.","kingdom":"Plantae","family":"Arecaceae","name":"Chamaedorea atrovirens","rank":"Species","synonymOf":{"accepted":true,"author":"Mart.","name":"Chamaedorea cataractarum","url":"/taxon/urn:lsid:ipni.org:names:54852-2","fqId":"urn:lsid:ipni.org:names:54852-2"},"url":"/taxon/urn:lsid:ipni.org:names:665718-1","fqId":"urn:lsid:ipni.org:names:665718-1"},{"accepted":true,"author":"Mart.","kingdom":"Plantae","family":"Arecaceae","name":"Chamaedorea atrovirens","rank":"Species","url":"/taxon/urn:lsid:ipni.org:names:54839-2","fqId":"urn:lsid:ipni.org:names:54839-2"},{"accepted":false,"author":"Brongn. ex Neumann","kingdom":"Plantae","family":"Arecaceae","name":"Chamaedorea aurantiaca","rank":"Species","synonymOf":{"accepted":true,"author":"Liebm.","name":"Chamaedorea sartorii","url":"/taxon/urn:lsid:ipni.org:names:54948-2","fqId":"urn:lsid:ipni.org:names:54948-2"},"url":"/taxon/urn:lsid:ipni.org:names:54840-2","fqId":"urn:lsid:ipni.org:names:54840-2"},{"accepted":false,"author":"(H.Wendl. ex Dammer) Gérôme","kingdom":"Plantae","family":"Arecaceae","name":"Chamaedorea bambusoides","rank":"Species","synonymOf":{"accepted":true,"author":"Mart.","name":"Chamaedorea elatior","url":"/taxon/urn:lsid:ipni.org:names:54864-2","fqId":"urn:lsid:ipni.org:names:54864-2"},"url":"/taxon/urn:lsid:ipni.org:names:77238646-1","fqId":"urn:lsid:ipni.org:names:77238646-1"},{"accepted":false,"author":"H.Wendl.","kingdom":"Plantae","family":"Arecaceae","name":"Chamaedorea bartlingiana","rank":"Species","synonymOf":{"accepted":true,"author":"(Jacq.) Oerst.","name":"Chamaedorea pinnatifrons","url":"/taxon/urn:lsid:ipni.org:names:665826-1","fqId":"urn:lsid:ipni.org:names:665826-1"},"url":"/taxon/urn:lsid:ipni.org:names:54841-2","fqId":"urn:lsid:ipni.org:names:54841-2"},{"accepted":true,"author":"Hodel","kingdom":"Plantae","family":"Arecaceae","name":"Chamaedorea benziei","rank":"Species","url":"/taxon/urn:lsid:ipni.org:names:302567-2","fqId":"urn:lsid:ipni.org:names:302567-2","images":[{"thumbnail":"//storage.googleapis.com/powop-assets/palmweb/palm_tc_37488_1_thumbnail.jpg","fullsize":"//storage.googleapis.com/powop-assets/palmweb/palm_tc_37488_1_fullsize.jpg","caption":"Arecaceae; Chamaedorea benziei"}]},{"accepted":false,"author":"Oerst.","kingdom":"Plantae","family":"Arecaceae","name":"Chamaedorea bifurcata","rank":"Species","synonymOf":{"accepted":true,"author":"(Jacq.) Oerst.","name":"Chamaedorea pinnatifrons","url":"/taxon/urn:lsid:ipni.org:names:665826-1","fqId":"urn:lsid:ipni.org:names:665826-1"},"url":"/taxon/urn:lsid:ipni.org:names:54842-2","fqId":"urn:lsid:ipni.org:names:54842-2"},{"accepted":false,"author":"H.Wendl.","kingdom":"Plantae","family":"Arecaceae","name":"Chamaedorea biloba","rank":"Species","synonymOf":{"accepted":true,"author":"Mart.","name":"Chamaedorea oblongata","url":"/taxon/urn:lsid:ipni.org:names:54920-2","fqId":"urn:lsid:ipni.org:names:54920-2"},"url":"/taxon/urn:lsid:ipni.org:names:54843-2","fqId":"urn:lsid:ipni.org:names:54843-2"}]}