{"totalResults":759,"page":1,"totalPages":32,"perPage":24,"cursor":"AoMIQPLvKDg2MDBSdXRhY2VhZUNpdHJ1c2JpY29sb3IsVGF4b25fOTcwODQx","message":"If you would like to download and use the POWO data in a conciencious way, please use our official library pykew [https://github.com/RBGKew/pykew].","results":[{"accepted":true,"author":"L.","kingdom":"Plantae","family":"Rutaceae","name":"Citrus","rank":"Genus","snippet":" <b>General</b>: In New Guinea <em>Citrus</em> can be recognised by the simple<br/> <b>Use</b>: The <em>citrus</em> fruits are of great economic importance<br/> <b>Common Name</b>: <em>citrus</em>","url":"/taxon/urn:lsid:ipni.org:names:30022289-2","fqId":"urn:lsid:ipni.org:names:30022289-2","images":[{"thumbnail":"//d2seqvvyy3b8p2.cloudfront.net/664d731bcc53daedaf4c4aafb8fe42a5.jpg","fullsize":"//d2seqvvyy3b8p2.cloudfront.net/ed0852c25355684a634e4c8a0a57023f.jpg","caption":"Pompoleon a feuilles crepues"},{"thumbnail":"//d2seqvvyy3b8p2.cloudfront.net/2cf7f2a5c661f93bd818f9ba9933b952.jpg","fullsize":"//d2seqvvyy3b8p2.cloudfront.net/a91e342b8c5f82f4f61d9614d1aa9bd6.jpg","caption":"Citrus limonum risso, Köhler"},{"thumbnail":"//d2seqvvyy3b8p2.cloudfront.net/7d68501bf73ef007ff462367cbbcd2e9.jpg","fullsize":"//d2seqvvyy3b8p2.cloudfront.net/f44fe1265ff4b73c1ac9bbd1c3f9c8f6.jpg","caption":"Citrus acida R., watercolour on paper"}]},{"accepted":true,"author":"Siebold ex Tanaka","kingdom":"Plantae","family":"Rutaceae","name":"Citrus × junos","rank":"Species","snippet":" <b>Common Name</b>: yuzu <em>citrus</em> tree","url":"/taxon/urn:lsid:ipni.org:names:771942-1","fqId":"urn:lsid:ipni.org:names:771942-1","images":[{"thumbnail":"//d2seqvvyy3b8p2.cloudfront.net/81ce23093e27efa036990d3c1ef45f28.jpg","fullsize":"//d2seqvvyy3b8p2.cloudfront.net/9bd0fd77c850c71200d56fc241013300.jpg","caption":"A specimen from Kew's Herbarium"}]},{"accepted":true,"author":"Juss.","kingdom":"Plantae","family":"Rutaceae","name":"Rutaceae","rank":"Family","snippet":" <b>General</b>:  USA (Arizona). <em>Citrus</em> L., Murraya Koenig ex L.and other allies<br/> <b>Use</b>: . Members of the genus <em>Citrus</em> are naturalised in some warmer<br/> <b>Appearance</b>:  with <em>citrus</em> or rank <em>citrus</em> scent<br/> <b>Fruit</b>: .), drupes or berries (Hortia, cultivated <em>Citrus</em> and allies),&nbsp","url":"/taxon/urn:lsid:ipni.org:names:30001492-2","fqId":"urn:lsid:ipni.org:names:30001492-2","images":[{"thumbnail":"//storage.googleapis.com/powop-assets/kew_profiles/KPPCONT_061130_thumbnail.jpg","fullsize":"//storage.googleapis.com/powop-assets/kew_profiles/KPPCONT_061130_fullsize.jpg","caption":"Calodendrum capense (Cape chestnut)"},{"thumbnail":"//storage.googleapis.com/powop-assets/kew_profiles/PPCONT_017913_thumbnail.jpg","fullsize":"//storage.googleapis.com/powop-assets/kew_profiles/PPCONT_017913_fullsize.jpg","caption":"Nematolepis wilsonii (shining nematolepis)"},{"thumbnail":"//d2seqvvyy3b8p2.cloudfront.net/bb294fb01df02bf2732f8737281cd192.jpg","fullsize":"//d2seqvvyy3b8p2.cloudfront.net/5c7153c384721c82db98c195a225c88e.jpg","caption":"Philotheca spicata"}]},{"accepted":true,"author":"Chiov.","kingdom":"Plantae","family":"Apocynaceae","name":"Ceropegia somalensis","rank":"Species","snippet":" <b>General</b>:  <em>citrus</em> scent. Old stems become woody and have a grey papery bark<br/> <b>Inflorescence</b>:  with intense <em>citrus</em> scent; peduncle succulent, descending, (2–)5–15 mm","url":"/taxon/urn:lsid:ipni.org:names:95784-1","fqId":"urn:lsid:ipni.org:names:95784-1","images":[{"thumbnail":"//d2seqvvyy3b8p2.cloudfront.net/80ea9be67d34a9f86ec2bc1628a46506.jpg","fullsize":"//d2seqvvyy3b8p2.cloudfront.net/ff3dd3899a996ca73c1d27ed3111a78f.jpg","caption":"Ceropegia somalensis"},{"thumbnail":"//d2seqvvyy3b8p2.cloudfront.net/5f2bdf622cce90db39fe0f941d1c0bd1.jpg","fullsize":"//d2seqvvyy3b8p2.cloudfront.net/3e11eec296f82a5f6a9ab5ff260f4a12.jpg","caption":"A specimen from Kew's Herbarium"}]},{"accepted":true,"author":"L.","kingdom":"Plantae","family":"Lamiaceae","name":"Collinsonia","rank":"Genus","snippet":" <b>Appearance</b>: Perennial herbs often with <em>citrus</em>-like odour","url":"/taxon/urn:lsid:ipni.org:names:328177-2","fqId":"urn:lsid:ipni.org:names:328177-2","images":[{"thumbnail":"//d2seqvvyy3b8p2.cloudfront.net/e20b9406b2117a9d7d51e057ce89b064.jpg","fullsize":"//d2seqvvyy3b8p2.cloudfront.net/3d4258ed99ed8e43ca31bde65af265d0.jpg","caption":"A specimen from Kew's Herbarium"},{"thumbnail":"//d2seqvvyy3b8p2.cloudfront.net/82d658d1a595015a41db27fc346381a3.jpg","fullsize":"//d2seqvvyy3b8p2.cloudfront.net/367b768ccd17f7a717e49eaf7d8b8d97.jpg","caption":"A specimen from Kew's Herbarium"},{"thumbnail":"//d2seqvvyy3b8p2.cloudfront.net/e90639501a1ef9ff88559023efdfafd8.jpg","fullsize":"//d2seqvvyy3b8p2.cloudfront.net/8a11d4837d4b906107d888c69d90a399.jpg","caption":"A specimen from Kew's Herbarium"}]},{"accepted":true,"author":"(Christm.) Swingle","kingdom":"Plantae","family":"Rutaceae","name":"Citrus × aurantiifolia","rank":"Species","snippet":" <b>Use</b>: The <em>citrus</em> fruits are of great economic importance.","url":"/taxon/urn:lsid:ipni.org:names:59599-2","fqId":"urn:lsid:ipni.org:names:59599-2","images":[{"thumbnail":"//d2seqvvyy3b8p2.cloudfront.net/0185628a830eab76b2d9b8e1d8bb826d.jpg","fullsize":"//d2seqvvyy3b8p2.cloudfront.net/39feb928228e0ae3b88a4a54cd8fb977.jpg","caption":"Citrus × aurantiifolia 'Variegata'"},{"thumbnail":"//d2seqvvyy3b8p2.cloudfront.net/a1e85f54f0ba29fc172b1c18b65e669b.jpg","fullsize":"//d2seqvvyy3b8p2.cloudfront.net/cfc22be84c38bf8021d6366beaf1d001.jpg","caption":"A specimen from Kew's Herbarium"},{"thumbnail":"//d2seqvvyy3b8p2.cloudfront.net/1c43ec3a344d4b0a06ed9824f3289455.jpg","fullsize":"//d2seqvvyy3b8p2.cloudfront.net/03466d4433d1c05f0d3d0a17fe42b352.jpg","caption":"Citrus x aurantiifolia"}]},{"accepted":true,"author":"L.","kingdom":"Plantae","family":"Rutaceae","name":"Citrus × aurantium","rank":"Species","snippet":" <b>Use</b>: The <em>citrus</em> fruits are of economic importance.","url":"/taxon/urn:lsid:ipni.org:names:59600-2","fqId":"urn:lsid:ipni.org:names:59600-2","images":[{"thumbnail":"//d2seqvvyy3b8p2.cloudfront.net/a52b7bffc65302dafcd2fe7225a27473.jpg","fullsize":"//d2seqvvyy3b8p2.cloudfront.net/b5f3672e79b9bb189f543870157885fe.jpg","caption":"Citrus sinensis"},{"thumbnail":"//d2seqvvyy3b8p2.cloudfront.net/665339815162b038ca1b673f63d873b5.jpg","fullsize":"//d2seqvvyy3b8p2.cloudfront.net/38ed820bc37d3025647b8d21ffcd9078.jpg","caption":"Citrus sinensis"},{"thumbnail":"//d2seqvvyy3b8p2.cloudfront.net/e408179838e07b57a3b6b9f7c355cd5c.jpg","fullsize":"//d2seqvvyy3b8p2.cloudfront.net/3655c806c3d8caf137150bd6ecf395f9.jpg","caption":"Citrus sinensis"}]},{"accepted":true,"author":"Hedberg","kingdom":"Plantae","family":"Asteraceae","name":"Senecio polyadenus","rank":"Species","snippet":" <b>Flower</b>: Ray florets 10–13, <em>citrus</em> yellow, corolla tube 4–5.5 mm","url":"/taxon/urn:lsid:ipni.org:names:246994-1","fqId":"urn:lsid:ipni.org:names:246994-1","images":[{"thumbnail":"//d2seqvvyy3b8p2.cloudfront.net/f2105f95b3769ded91c34b0ead4e7b6a.jpg","fullsize":"//d2seqvvyy3b8p2.cloudfront.net/6df1f0b994e70c57ef840b6a93f72e11.jpg","caption":"A specimen from Kew's Herbarium"}]},{"accepted":true,"author":"J.M.MacDougal","kingdom":"Plantae","family":"Passifloraceae","name":"Passiflora citrina","rank":"Species","snippet":" <b>Common Name</b>: <em>citrus</em>-yellow passion flower","url":"/taxon/urn:lsid:ipni.org:names:282176-2","fqId":"urn:lsid:ipni.org:names:282176-2","images":[{"thumbnail":"//d2seqvvyy3b8p2.cloudfront.net/aa88a5c2ce2b113fc8513c1a89773c0f.jpg","fullsize":"//d2seqvvyy3b8p2.cloudfront.net/857a99436933af8a0da1b29f53e131c1.jpg","caption":"Passiflora citrina"},{"thumbnail":"//d2seqvvyy3b8p2.cloudfront.net/8cecb5e38110a081befc1ca0c15d5b13.jpg","fullsize":"//d2seqvvyy3b8p2.cloudfront.net/53da9b5f06736ced5d6f78c7ef48ae12.jpg","caption":"Passiflora citrina"},{"thumbnail":"//d2seqvvyy3b8p2.cloudfront.net/d5f2aa9f7d2ab9a5679bd3eb300c4d50.jpg","fullsize":"//d2seqvvyy3b8p2.cloudfront.net/ba783425982deccfb0646b23495e08ad.jpg","caption":"Passiflora citrina"}]},{"accepted":false,"author":"Pers.","kingdom":"Plantae","family":"Rutaceae","name":"Citrus acida","rank":"Species","synonymOf":{"accepted":true,"author":"L.","name":"Citrus medica","url":"/taxon/urn:lsid:ipni.org:names:59603-2","fqId":"urn:lsid:ipni.org:names:59603-2"},"url":"/taxon/urn:lsid:ipni.org:names:771837-1","fqId":"urn:lsid:ipni.org:names:771837-1"},{"accepted":false,"author":"(Yu.Tanaka) Yu.Tanaka","kingdom":"Plantae","family":"Rutaceae","name":"Citrus alata","rank":"Species","synonymOf":{"accepted":true,"author":"L.","name":"Citrus medica","url":"/taxon/urn:lsid:ipni.org:names:59603-2","fqId":"urn:lsid:ipni.org:names:59603-2"},"url":"/taxon/urn:lsid:ipni.org:names:60447433-2","fqId":"urn:lsid:ipni.org:names:60447433-2"},{"accepted":true,"author":"Bojer","kingdom":"Plantae","family":"Rutaceae","name":"Citrus albida","rank":"Species","url":"/taxon/urn:lsid:ipni.org:names:771839-1","fqId":"urn:lsid:ipni.org:names:771839-1"},{"accepted":true,"author":"Hassk.","kingdom":"Plantae","family":"Rutaceae","name":"Citrus amara","rank":"Species","url":"/taxon/urn:lsid:ipni.org:names:771840-1","fqId":"urn:lsid:ipni.org:names:771840-1"},{"accepted":false,"author":"Willd.","kingdom":"Plantae","family":"Rutaceae","name":"Citrus angulata","rank":"Species","synonymOf":{"accepted":true,"author":"(Willd.) Swingle","name":"Merope angulata","url":"/taxon/urn:lsid:ipni.org:names:774354-1","fqId":"urn:lsid:ipni.org:names:774354-1"},"url":"/taxon/urn:lsid:ipni.org:names:771844-1","fqId":"urn:lsid:ipni.org:names:771844-1"},{"accepted":true,"author":"Risso","kingdom":"Plantae","family":"Rutaceae","name":"Citrus arethusa","rank":"Species","url":"/taxon/urn:lsid:ipni.org:names:771847-1","fqId":"urn:lsid:ipni.org:names:771847-1"},{"accepted":false,"author":"Willd. ex Spreng.","kingdom":"Plantae","family":"Rutaceae","name":"Citrus articulata","rank":"Species","synonymOf":{"accepted":true,"author":"(Willd. ex Spreng.) Swingle & M.Kellerm.","name":"Citropsis articulata","url":"/taxon/urn:lsid:ipni.org:names:771824-1","fqId":"urn:lsid:ipni.org:names:771824-1"},"url":"/taxon/urn:lsid:ipni.org:names:771848-1","fqId":"urn:lsid:ipni.org:names:771848-1"},{"accepted":true,"author":"R.M.Dutta & Bhattacharya","kingdom":"Plantae","family":"Rutaceae","name":"Citrus assamensis","rank":"Species","url":"/taxon/urn:lsid:ipni.org:names:771850-1","fqId":"urn:lsid:ipni.org:names:771850-1","images":[{"thumbnail":"//d2seqvvyy3b8p2.cloudfront.net/deb5736c0a46762345d7c62de6e399ad.jpg","fullsize":"//d2seqvvyy3b8p2.cloudfront.net/8c72de3e5ded2db27ff40c453468d3ab.jpg","caption":"A specimen from Kew's Herbarium"}]},{"accepted":false,"author":"Michel","kingdom":"Plantae","family":"Rutaceae","name":"Citrus auraria","rank":"Species","synonymOf":{"accepted":true,"author":"DC.","name":"Citrus hystrix","url":"/taxon/urn:lsid:ipni.org:names:771927-1","fqId":"urn:lsid:ipni.org:names:771927-1"},"url":"/taxon/urn:lsid:ipni.org:names:20012398-1","fqId":"urn:lsid:ipni.org:names:20012398-1"},{"accepted":false,"author":"Yu.Tanaka","kingdom":"Plantae","family":"Rutaceae","name":"Citrus aurea","rank":"Species","synonymOf":{"accepted":true,"author":"L.","name":"Citrus medica","url":"/taxon/urn:lsid:ipni.org:names:59603-2","fqId":"urn:lsid:ipni.org:names:59603-2"},"url":"/taxon/urn:lsid:ipni.org:names:2724024-4","fqId":"urn:lsid:ipni.org:names:2724024-4"},{"accepted":true,"author":"F.Muell.","kingdom":"Plantae","family":"Rutaceae","name":"Citrus australasica","rank":"Species","url":"/taxon/urn:lsid:ipni.org:names:771856-1","fqId":"urn:lsid:ipni.org:names:771856-1","images":[{"thumbnail":"//d2seqvvyy3b8p2.cloudfront.net/ddde75316631276d99286204097e31fd.jpg","fullsize":"//d2seqvvyy3b8p2.cloudfront.net/52ca6a161220394cd9d0f6e9183b81dc.jpg","caption":"Væksthusene, Aarhus C, Denmark, 17 May 2022"},{"thumbnail":"//d2seqvvyy3b8p2.cloudfront.net/d7c97091612738d0151c257530658a8b.jpg","fullsize":"//d2seqvvyy3b8p2.cloudfront.net/68d25ab97aaa7f730afd8d3047d06f62.jpg","caption":"Væksthusene, Aarhus C, Denmark, 17 May 2022"},{"thumbnail":"//d2seqvvyy3b8p2.cloudfront.net/116cda0234c22a8c69c9a8e22791c1dd.jpg","fullsize":"//d2seqvvyy3b8p2.cloudfront.net/2e70a1bd42ce4e9a394b9b2eaf93818d.jpg","caption":"Væksthusene, Aarhus C, Denmark, 17 May 2022"}]},{"accepted":true,"author":"(Mudie) Planch.","kingdom":"Plantae","family":"Rutaceae","name":"Citrus australis","rank":"Species","snippet":" <b>Common Name</b>: lime","url":"/taxon/urn:lsid:ipni.org:names:771857-1","fqId":"urn:lsid:ipni.org:names:771857-1","images":[{"thumbnail":"//d2seqvvyy3b8p2.cloudfront.net/3f21c020cea1f7dd36b30b713ebc51b1.jpg","fullsize":"//d2seqvvyy3b8p2.cloudfront.net/c55a874430c600ac621bcc8c6d63d1b3.jpg","caption":"A specimen from Kew's Herbarium"}]},{"accepted":false,"author":"(Yu.Tanaka) Yu.Tanaka","kingdom":"Plantae","family":"Rutaceae","name":"Citrus balincolong","rank":"Species","synonymOf":{"accepted":true,"author":"DC.","name":"Citrus hystrix","url":"/taxon/urn:lsid:ipni.org:names:771927-1","fqId":"urn:lsid:ipni.org:names:771927-1"},"url":"/taxon/urn:lsid:ipni.org:names:2724028-4","fqId":"urn:lsid:ipni.org:names:2724028-4"},{"accepted":false,"author":"Poit. & Turpin","kingdom":"Plantae","family":"Rutaceae","name":"Citrus balotina","rank":"Species","synonymOf":{"accepted":true,"author":"L.","name":"Citrus medica","url":"/taxon/urn:lsid:ipni.org:names:59603-2","fqId":"urn:lsid:ipni.org:names:59603-2"},"url":"/taxon/urn:lsid:ipni.org:names:771858-1","fqId":"urn:lsid:ipni.org:names:771858-1"},{"accepted":false,"author":"Poit. & Turpin","kingdom":"Plantae","family":"Rutaceae","name":"Citrus bicolor","rank":"Species","synonymOf":{"accepted":true,"author":"L.","name":"Citrus medica","url":"/taxon/urn:lsid:ipni.org:names:59603-2","fqId":"urn:lsid:ipni.org:names:59603-2"},"url":"/taxon/urn:lsid:ipni.org:names:771862-1","fqId":"urn:lsid:ipni.org:names:771862-1"}]}