{"totalResults":31,"page":1,"totalPages":2,"perPage":24,"cursor":"AoMIQClf3T8ENjAwQXBvY3luYWNlYWVDZXJvcGVnaWFhcmVuYXJpb2lkZXMsVGF4b25fNTQ4MzA0","message":"If you would like to download and use the POWO data in a conciencious way, please use our official library pykew [https://github.com/RBGKew/pykew].","results":[{"accepted":true,"author":"(J.Kirk ex Benth.) J.Kirk ex J.Léonard","kingdom":"Plantae","family":"Fabaceae","name":"Colophospermum mopane","rank":"Species","snippet":" <b>General</b>:  in Africa. <em>Colophospermum</em> <em>mopane</em> (or mopane as it is commonly known","url":"/taxon/urn:lsid:ipni.org:names:486795-1","fqId":"urn:lsid:ipni.org:names:486795-1","images":[{"thumbnail":"//storage.googleapis.com/powop-assets/kew_profiles/PPCONT_009113_thumbnail.jpg","fullsize":"//storage.googleapis.com/powop-assets/kew_profiles/PPCONT_009113_fullsize.jpg","caption":"Colophospermum mopane (mopane)"},{"thumbnail":"//storage.googleapis.com/powop-assets/kew_profiles/PPCONT_009114_thumbnail.jpg","fullsize":"//storage.googleapis.com/powop-assets/kew_profiles/PPCONT_009114_fullsize.jpg","caption":"Colophospermum mopane"},{"thumbnail":"//storage.googleapis.com/powop-assets/kew_profiles/KPPCONT_054918_thumbnail.jpg","fullsize":"//storage.googleapis.com/powop-assets/kew_profiles/KPPCONT_054918_fullsize.jpg","caption":"Colophospermum mopane seeds"}]},{"accepted":true,"author":"Bruyns","kingdom":"Plantae","family":"Apocynaceae","name":"Ceropegia neofurcata","rank":"Species","snippet":" <b>General</b>: ’) in <em>Colophospermum</em> <em>mopane</em> woodland; c.1350 m.","url":"/taxon/urn:lsid:ipni.org:names:77167210-1","fqId":"urn:lsid:ipni.org:names:77167210-1"},{"accepted":true,"author":"J.B.Gillett","kingdom":"Plantae","family":"Fabaceae","name":"Tephrosia limpopoensis","rank":"Species","snippet":" <b>General</b>: , from <em>Colophospermum</em> <em>mopane</em> bush; 400 m.","url":"/taxon/urn:lsid:ipni.org:names:520696-1","fqId":"urn:lsid:ipni.org:names:520696-1","images":[{"thumbnail":"//d2seqvvyy3b8p2.cloudfront.net/3ae5aaf90bdd514082f39b374d13488c.jpg","fullsize":"//d2seqvvyy3b8p2.cloudfront.net/02460e89c3c768bdb4320a1ac17d8ed3.jpg","caption":"A specimen from Kew's Herbarium"}]},{"accepted":true,"author":"Moldenke","kingdom":"Plantae","family":"Verbenaceae","name":"Priva africana","rank":"Species","snippet":" <b>General</b>: In open grassland and Acacia/Combretum/<em>Colophospermum</em>","url":"/taxon/urn:lsid:ipni.org:names:864490-1","fqId":"urn:lsid:ipni.org:names:864490-1","images":[{"thumbnail":"//d2seqvvyy3b8p2.cloudfront.net/d67c69747be85494502ec65174f01935.jpg","fullsize":"//d2seqvvyy3b8p2.cloudfront.net/ab3169aa9b0c3936808b118afa4e63dc.jpg","caption":"A specimen from Kew's Herbarium"}]},{"accepted":true,"author":"(Turrill) Bruyns","kingdom":"Plantae","family":"Apocynaceae","name":"Ceropegia brevipedicellata","rank":"Species","snippet":" <b>General</b>:  in <em>Colophospermum</em> <em>mopane</em> woodland on darker soils; 1100–1600 m.","url":"/taxon/urn:lsid:ipni.org:names:77167144-1","fqId":"urn:lsid:ipni.org:names:77167144-1","images":[{"thumbnail":"//d2seqvvyy3b8p2.cloudfront.net/2e179e11793a82cb4baef0db49db4409.jpg","fullsize":"//d2seqvvyy3b8p2.cloudfront.net/7f1f57c4c25e4664fe2a1f4d0dce3824.jpg","caption":"A specimen from Kew's Herbarium"},{"thumbnail":"//d2seqvvyy3b8p2.cloudfront.net/b6751e820d2e67ed2b5efb1595ffb2c0.jpg","fullsize":"//d2seqvvyy3b8p2.cloudfront.net/b838a76104cba08f4dfe959d8bdd1e7c.jpg","caption":"A specimen from Kew's Herbarium"}]},{"accepted":true,"author":"Decne.","kingdom":"Plantae","family":"Apocynaceae","name":"Ceropegia meyeri","rank":"Species","snippet":" <b>General</b>: Most records from grassland, also open <em>Colophospermum</em>","url":"/taxon/urn:lsid:ipni.org:names:95674-1","fqId":"urn:lsid:ipni.org:names:95674-1","images":[{"thumbnail":"//d2seqvvyy3b8p2.cloudfront.net/b76b113b8d07bfec9627350c38488281.jpg","fullsize":"//d2seqvvyy3b8p2.cloudfront.net/5bac35dcbf8926ff25494ecd70b5cf97.jpg","caption":"Asclepiadaceae Ceropegia meyeri Decne."},{"thumbnail":"//d2seqvvyy3b8p2.cloudfront.net/6c458689845d23995ec2dbc81aa07315.jpg","fullsize":"//d2seqvvyy3b8p2.cloudfront.net/e9593ea3c185a12a76d3caa717881351.jpg","caption":"Asclepiadaceae Ceropegia meyeri Decne."},{"thumbnail":"//d2seqvvyy3b8p2.cloudfront.net/db0194f6101788a4240a8804aeb6cbec.jpg","fullsize":"//d2seqvvyy3b8p2.cloudfront.net/19b726371bd6d6e10c0ab742ccd2022d.jpg","caption":"A specimen from Kew's Herbarium"}]},{"accepted":true,"author":"Hallier f.","kingdom":"Plantae","family":"Convolvulaceae","name":"Seddera schizantha","rank":"Species","snippet":" <b>General</b>: , in association with <em>Colophospermum</em> <em>mopane</em> and Terminalia prunioides; 650","url":"/taxon/urn:lsid:ipni.org:names:271183-1","fqId":"urn:lsid:ipni.org:names:271183-1","images":[{"thumbnail":"//d2seqvvyy3b8p2.cloudfront.net/1442637c21be0d63ec2c0872ef29f816.jpg","fullsize":"//d2seqvvyy3b8p2.cloudfront.net/7c9c928acb4c4442425d3e3eb9f2b2d1.jpg","caption":"A specimen from Kew's Herbarium"}]},{"accepted":true,"author":"H.Huber","kingdom":"Plantae","family":"Apocynaceae","name":"Ceropegia racemosa subsp. glabra","rank":"Subspecies","snippet":" <b>General</b>: <em>Colophospermum</em> <em>mopane</em> woodland, evergreen thickets, amongst","url":"/taxon/urn:lsid:ipni.org:names:77201714-1","fqId":"urn:lsid:ipni.org:names:77201714-1","images":[{"thumbnail":"//d2seqvvyy3b8p2.cloudfront.net/01af9c8b6efcf449f1b7e8b56d97f3bc.jpg","fullsize":"//d2seqvvyy3b8p2.cloudfront.net/978b2dd9856f499f416f2e9f520cfdac.jpg","caption":"A specimen from Kew's Herbarium"}]},{"accepted":true,"author":"(Mendonça & E.P.Sousa) Lock","kingdom":"Plantae","family":"Fabaceae","name":"Philenoptera wankieensis","rank":"Species","snippet":" <b>General</b>:  with <em>Colophospermum</em> <em>mopane</em> dominant; 700–900 m.","url":"/taxon/urn:lsid:ipni.org:names:1013777-1","fqId":"urn:lsid:ipni.org:names:1013777-1","images":[{"thumbnail":"//d2seqvvyy3b8p2.cloudfront.net/bd904eea36ae0ef2a7c77c74e69f94dd.jpg","fullsize":"//d2seqvvyy3b8p2.cloudfront.net/573d15124e0c00de40b1b46e6c63786a.jpg","caption":"A specimen from Kew's Herbarium"}]},{"accepted":true,"author":"Moldenke","kingdom":"Plantae","family":"Lamiaceae","name":"Vitex schliebenii","rank":"Species","snippet":" <b>General</b>:  , <em>Colophospermum</em> <em>mopane</em> and  Terminalia spp ., at low altitudes","url":"/taxon/urn:lsid:ipni.org:names:865990-1","fqId":"urn:lsid:ipni.org:names:865990-1","images":[{"thumbnail":"//d2seqvvyy3b8p2.cloudfront.net/e60f8ce793d5188118009342ca1ac7ab.jpg","fullsize":"//d2seqvvyy3b8p2.cloudfront.net/44f5524cae203722d32b788b1e4144c1.jpg","caption":"A specimen from Kew's Herbarium"}]},{"accepted":true,"author":"Vollesen","kingdom":"Plantae","family":"Acanthaceae","name":"Blepharis gazensis","rank":"Species","snippet":" <b>General</b>: In <em>mopane</em> (<em>Colophospermum</em>) woodland; c.50 m.","url":"/taxon/urn:lsid:ipni.org:names:1017536-1","fqId":"urn:lsid:ipni.org:names:1017536-1"},{"accepted":true,"author":"Bruyns","kingdom":"Plantae","family":"Apocynaceae","name":"Ceropegia floribundior","rank":"Species","snippet":" <b>General</b>:  in grassland or <em>Colophospermum</em> <em>mopane</em> woodland on sandy clay; 1100–1500","url":"/taxon/urn:lsid:ipni.org:names:77167174-1","fqId":"urn:lsid:ipni.org:names:77167174-1","images":[{"thumbnail":"//d2seqvvyy3b8p2.cloudfront.net/220e6ab0db54d20d7672ac7a35e1fe2c.jpg","fullsize":"//d2seqvvyy3b8p2.cloudfront.net/3173121a825e54913f62b72cfbd7a3a1.jpg","caption":"Ceropegia floribundior, Apocynaceae"},{"thumbnail":"//d2seqvvyy3b8p2.cloudfront.net/50d3715aabca240a6b00e4b64a938f99.jpg","fullsize":"//d2seqvvyy3b8p2.cloudfront.net/43782499f6e38f103bf7e1d4c4aead61.jpg","caption":"Ceropegia floribundior, Apocynaceae"},{"thumbnail":"//d2seqvvyy3b8p2.cloudfront.net/b1d1fe930808b9ff5d2e816f833dcfa3.jpg","fullsize":"//d2seqvvyy3b8p2.cloudfront.net/0a0bbdeb46cdd02046bbd20d0a871764.jpg","caption":"Ceropegia floribundior, Apocynaceae"}]},{"accepted":true,"author":"K.Schum.","kingdom":"Plantae","family":"Apocynaceae","name":"Ceropegia stenantha","rank":"Species","snippet":" <b>General</b>: On rock outcrops, in <em>Colophospermum</em> <em>mopane</em>, Brachystegia","url":"/taxon/urn:lsid:ipni.org:names:95796-1","fqId":"urn:lsid:ipni.org:names:95796-1","images":[{"thumbnail":"//d2seqvvyy3b8p2.cloudfront.net/cb1a3f1faae5516cd328ae9566eac0c5.jpg","fullsize":"//d2seqvvyy3b8p2.cloudfront.net/5bf98eddcbf9c26ea18f0dae3bb98a01.jpg","caption":"A specimen from Kew's Herbarium"}]},{"accepted":true,"author":"(S.Moore) I.Darbysh.","kingdom":"Plantae","family":"Acanthaceae","name":"Barleria taitensis subsp. occidentalis","rank":"Subspecies","snippet":" <b>General</b>: , often dominated by <em>Colophospermum</em> <em>mopane</em>, open rocky slopes","url":"/taxon/urn:lsid:ipni.org:names:77215736-1","fqId":"urn:lsid:ipni.org:names:77215736-1","images":[{"thumbnail":"//d2seqvvyy3b8p2.cloudfront.net/8a37b091a4ebae9a1a0e4c111bd7e4fb.jpg","fullsize":"//d2seqvvyy3b8p2.cloudfront.net/4e7b4db772e8c4adc6a1ceaff5bec97e.jpg","caption":"A specimen from Kew's Herbarium"}]},{"accepted":true,"author":"Ridl.","kingdom":"Plantae","family":"Cyperaceae","name":"Cyperus callistus","rank":"Species","snippet":" <b>General</b>: In woodland, often <em>Colophospermum</em> <em>mopane</em> but also Combretum","url":"/taxon/urn:lsid:ipni.org:names:304027-1","fqId":"urn:lsid:ipni.org:names:304027-1","images":[{"thumbnail":"//d2seqvvyy3b8p2.cloudfront.net/ba1ec0d06aae3f4d3076216272eb8a1b.jpg","fullsize":"//d2seqvvyy3b8p2.cloudfront.net/3ea8be5628893bbf3ef70893315827d1.jpg","caption":"A specimen from Kew's Herbarium"},{"thumbnail":"//storage.googleapis.com/powop-assets/PPA/2226_2250/h2227a_thumbnail.jpg","fullsize":"//storage.googleapis.com/powop-assets/PPA/2226_2250/h2227a_fullsize.jpg","caption":"Cyperus fulgens"},{"thumbnail":"//storage.googleapis.com/powop-assets/PPA/2226_2250/h2227b_thumbnail.jpg","fullsize":"//storage.googleapis.com/powop-assets/PPA/2226_2250/h2227b_fullsize.jpg","caption":"Cyperus fulgens"}]},{"accepted":true,"author":"C.B.Clarke","kingdom":"Plantae","family":"Acanthaceae","name":"Barleria lugardii","rank":"Species","snippet":" <b>General</b>: ., <em>Colophospermum</em> <em>mopane</em> etc., occasionally on rocky hillslopes","url":"/taxon/urn:lsid:ipni.org:names:46057-1","fqId":"urn:lsid:ipni.org:names:46057-1","images":[{"thumbnail":"//storage.googleapis.com/powop-assets/PPA/0551_0600/h0591a_thumbnail.jpg","fullsize":"//storage.googleapis.com/powop-assets/PPA/0551_0600/h0591a_fullsize.jpg","caption":"Barleria lugardii C.B.Clarke"},{"thumbnail":"//storage.googleapis.com/powop-assets/PPA/0551_0600/h0591b_thumbnail.jpg","fullsize":"//storage.googleapis.com/powop-assets/PPA/0551_0600/h0591b_fullsize.jpg","caption":"Barleria lugardii C.B.Clarke"},{"thumbnail":"//storage.googleapis.com/powop-assets/PPA/0551_0600/h0591c_thumbnail.jpg","fullsize":"//storage.googleapis.com/powop-assets/PPA/0551_0600/h0591c_fullsize.jpg","caption":"Barleria lugardii C.B.Clarke"}]},{"accepted":true,"author":"S.Moore","kingdom":"Plantae","family":"Acanthaceae","name":"Barleria cyanea","rank":"Species","snippet":" <b>General</b>:  among open sandy flats with <em>Colophospermum</em> <em>mopane</em>","url":"/taxon/urn:lsid:ipni.org:names:45932-1","fqId":"urn:lsid:ipni.org:names:45932-1","images":[{"thumbnail":"//d2seqvvyy3b8p2.cloudfront.net/0515ff09225aafa5f266153ca97448b9.jpg","fullsize":"//d2seqvvyy3b8p2.cloudfront.net/d6759675bb0fbeecff700489301e2bff.jpg","caption":"A specimen from Kew's Herbarium"}]},{"accepted":true,"author":"Hook.f.","kingdom":"Plantae","family":"Acanthaceae","name":"Barleria mackenii","rank":"Species","snippet":" <b>General</b>:  with Acacia (Vachellia and/or Senegalia), <em>Colophospermum</em> <em>mopane</em>","url":"/taxon/urn:lsid:ipni.org:names:46060-1","fqId":"urn:lsid:ipni.org:names:46060-1","images":[{"thumbnail":"//storage.googleapis.com/powop-assets/PPA/0001_0050/h0049a_thumbnail.jpg","fullsize":"//storage.googleapis.com/powop-assets/PPA/0001_0050/h0049a_fullsize.jpg","caption":"Barleria mackenii Hook. f."},{"thumbnail":"//storage.googleapis.com/powop-assets/PPA/0001_0050/h0049b_thumbnail.jpg","fullsize":"//storage.googleapis.com/powop-assets/PPA/0001_0050/h0049b_fullsize.jpg","caption":"Barleria mackenii Hook. f."},{"thumbnail":"//storage.googleapis.com/powop-assets/PPA/0001_0050/h0049d_thumbnail.jpg","fullsize":"//storage.googleapis.com/powop-assets/PPA/0001_0050/h0049d_fullsize.jpg","caption":"Barleria mackenii Hook. f."}]},{"accepted":true,"author":"P.G.Mey.","kingdom":"Plantae","family":"Acanthaceae","name":"Barleria meeuseana","rank":"Species","snippet":" <b>General</b>: , <em>Colophospermum</em> <em>mopane</em>, Boscia and Adenolobus; it is also recorded from","url":"/taxon/urn:lsid:ipni.org:names:46076-1","fqId":"urn:lsid:ipni.org:names:46076-1","images":[{"thumbnail":"//d2seqvvyy3b8p2.cloudfront.net/ad00e0d260c32e04dc7007779a923551.jpg","fullsize":"//d2seqvvyy3b8p2.cloudfront.net/d3c3ec1aca0910e6ba8b3db6f70ca6ce.jpg","caption":"A specimen from Kew's Herbarium"}]},{"accepted":true,"author":"(Moldenke) R.Fern.","kingdom":"Plantae","family":"Lamiaceae","name":"Rotheca wildii","rank":"Species","snippet":" <b>General</b>:   and <em>Colophospermum</em> <em>mopane</em> woodlands, in thickets in grassland and on termite","url":"/taxon/urn:lsid:ipni.org:names:1013836-1","fqId":"urn:lsid:ipni.org:names:1013836-1","images":[{"thumbnail":"//d2seqvvyy3b8p2.cloudfront.net/4a1f893c41b34b2d42fd08f7e7120584.jpg","fullsize":"//d2seqvvyy3b8p2.cloudfront.net/80bd6504f4a19e8d6edc48a551218d1f.jpg","caption":"A specimen from Kew's Herbarium"}]},{"accepted":true,"author":"A.Meeuse","kingdom":"Plantae","family":"Acanthaceae","name":"Barleria ameliae","rank":"Species","snippet":" <b>General</b>: ), most notably in <em>Colophospermum</em> <em>mopane</em> and Acacia woodland","url":"/taxon/urn:lsid:ipni.org:names:45845-1","fqId":"urn:lsid:ipni.org:names:45845-1","images":[{"thumbnail":"//d2seqvvyy3b8p2.cloudfront.net/32146ce6331e5a0a0130a6fd7a4745f0.jpg","fullsize":"//d2seqvvyy3b8p2.cloudfront.net/44102e9441945722e2e031c7c8d4526e.jpg","caption":"A specimen from Kew's Herbarium"}]},{"accepted":true,"author":"T.Anderson","kingdom":"Plantae","family":"Acanthaceae","name":"Barleria lancifolia","rank":"Species","snippet":" <b>General</b>:  [Vachellia and/or Senegalia] spp. or <em>Colophospermum</em> <em>mopane</em>","url":"/taxon/urn:lsid:ipni.org:names:46040-1","fqId":"urn:lsid:ipni.org:names:46040-1","images":[{"thumbnail":"//storage.googleapis.com/powop-assets/PPA/1425_1449/h1431a_thumbnail.jpg","fullsize":"//storage.googleapis.com/powop-assets/PPA/1425_1449/h1431a_fullsize.jpg","caption":"Barleria lancifolia T.Anderson"},{"thumbnail":"//storage.googleapis.com/powop-assets/PPA/1425_1449/h1431b_thumbnail.jpg","fullsize":"//storage.googleapis.com/powop-assets/PPA/1425_1449/h1431b_fullsize.jpg","caption":"Barleria lancifolia T.Anderson"},{"thumbnail":"//storage.googleapis.com/powop-assets/PPA/1425_1449/h1431c_thumbnail.jpg","fullsize":"//storage.googleapis.com/powop-assets/PPA/1425_1449/h1431c_fullsize.jpg","caption":"Barleria lancifolia T.Anderson"}]},{"accepted":true,"author":"Klotzsch","kingdom":"Plantae","family":"Acanthaceae","name":"Barleria senensis","rank":"Species","snippet":" <b>General</b>:  and scrub of variously Acacia, Boscia, Burkea, <em>Colophospermum</em> <em>mopane</em>","url":"/taxon/urn:lsid:ipni.org:names:46207-1","fqId":"urn:lsid:ipni.org:names:46207-1","images":[{"thumbnail":"//storage.googleapis.com/powop-assets/PPA/1425_1449/h1434a_thumbnail.jpg","fullsize":"//storage.googleapis.com/powop-assets/PPA/1425_1449/h1434a_fullsize.jpg","caption":"Barleria senensis Klotzsch"},{"thumbnail":"//storage.googleapis.com/powop-assets/PPA/1425_1449/h1434b_thumbnail.jpg","fullsize":"//storage.googleapis.com/powop-assets/PPA/1425_1449/h1434b_fullsize.jpg","caption":"Barleria senensis Klotzsch"},{"thumbnail":"//storage.googleapis.com/powop-assets/PPA/1425_1449/h1434e_thumbnail.jpg","fullsize":"//storage.googleapis.com/powop-assets/PPA/1425_1449/h1434e_fullsize.jpg","caption":"Barleria senensis Klotzsch"}]},{"accepted":true,"author":"M.G.Gilbert","kingdom":"Plantae","family":"Apocynaceae","name":"Ceropegia arenarioides","rank":"Species","snippet":" <b>General</b>: Among bushes, including Acacia tortilis and <em>Colophospermum</em>","url":"/taxon/urn:lsid:ipni.org:names:77216345-1","fqId":"urn:lsid:ipni.org:names:77216345-1"}]}