{"totalResults":481,"page":1,"totalPages":21,"perPage":24,"cursor":"AoMIQQCHJjU2MDBNdXNhY2VhZU11c2FiYWtlcmktVGF4b25fMTA3Mzg0OQ==","message":"If you would like to download and use the POWO data in a conciencious way, please use our official library pykew [https://github.com/RBGKew/pykew].","results":[{"accepted":true,"author":"L.","kingdom":"Plantae","family":"Musaceae","name":"Musa","rank":"Genus","snippet":" <b>General</b>: <em>Musa</em> is widespread throughout New Guinea, in forest<br/> <b>Use</b>:  are commercial triploids derived from <em>Musa</em> acuminata Colla, but Fe’i","url":"/taxon/urn:lsid:ipni.org:names:327926-2","fqId":"urn:lsid:ipni.org:names:327926-2","images":[{"thumbnail":"//storage.googleapis.com/powop-assets/malesiankey/photo/CER-9_thumbnail.jpg","fullsize":"//storage.googleapis.com/powop-assets/malesiankey/photo/CER-9_fullsize.jpg","caption":"Musa beccarii (Musaceae)"},{"thumbnail":"//storage.googleapis.com/powop-assets/neotropikey/Musa_paradisa_1_thumbnail.jpg","fullsize":"//storage.googleapis.com/powop-assets/neotropikey/Musa_paradisa_1_fullsize.jpg","caption":"Musa paradisa (Musaceae)"},{"thumbnail":"//storage.googleapis.com/powop-assets/neotropikey/Musa_paradisa_3_thumbnail.jpg","fullsize":"//storage.googleapis.com/powop-assets/neotropikey/Musa_paradisa_3_fullsize.jpg","caption":"Musa paradisa (Musaceae)"}]},{"accepted":true,"author":"H.Wendl. ex Baker","kingdom":"Plantae","family":"Musaceae","name":"Musa mannii","rank":"Species","snippet":" <b>General</b>: <em>Musa</em> mannii has the special characteristic of hermaphrodite","url":"/taxon/urn:lsid:ipni.org:names:797582-1","fqId":"urn:lsid:ipni.org:names:797582-1"},{"accepted":true,"author":"Colla","kingdom":"Plantae","family":"Musaceae","name":"Musa balbisiana","rank":"Species","snippet":" <b>General</b>: <em>Musa</em> balbisiana&nbsp;is one of the wild ancestors","url":"/taxon/urn:lsid:ipni.org:names:797536-1","fqId":"urn:lsid:ipni.org:names:797536-1","images":[{"thumbnail":"//storage.googleapis.com/powop-assets/kew_profiles/Plantain%20M__acuminata_x_balbisiana_thumbnail.jpg","fullsize":"//storage.googleapis.com/powop-assets/kew_profiles/Plantain%20M__acuminata_x_balbisiana_fullsize.jpg","caption":"Musa balbisiana (plantain)"},{"thumbnail":"//d2seqvvyy3b8p2.cloudfront.net/3a620c4c69681d70eaa1969237cae003.jpg","fullsize":"//d2seqvvyy3b8p2.cloudfront.net/9c7a6d92b2825e254a5a2f05fce01c86.jpg","caption":"Musa balbisiana"},{"thumbnail":"//d2seqvvyy3b8p2.cloudfront.net/f0c82ce0430fb96428cf6062d0b5463f.jpg","fullsize":"//d2seqvvyy3b8p2.cloudfront.net/125358d8aafb375770b585999033ebae.jpg","caption":"Musa balbisiana"}]},{"accepted":false,"author":"Engl.","kingdom":"Plantae","family":"Cannabaceae","name":"Celtis durandii","rank":"Species","snippet":" <b>Common Name</b>: <em>musa</em>","synonymOf":{"accepted":true,"author":"(Baker) X.G.Fu & T.S.Yi","name":"Sparrea gomphophylla","url":"/taxon/urn:lsid:ipni.org:names:77324204-1","fqId":"urn:lsid:ipni.org:names:77324204-1"},"url":"/taxon/urn:lsid:ipni.org:names:851043-1","fqId":"urn:lsid:ipni.org:names:851043-1"},{"accepted":true,"author":"Vell.","kingdom":"Plantae","family":"Fabaceae","name":"Mimosa musa","rank":"Species","snippet":" <b>Species</b>: <em>musa</em>","url":"/taxon/urn:lsid:ipni.org:names:508363-1","fqId":"urn:lsid:ipni.org:names:508363-1"},{"accepted":false,"author":"Täckh. & Hadidi","kingdom":"Plantae","family":"Plantaginaceae","name":"Veronica musa","rank":"Species","snippet":" <b>Species</b>: <em>musa</em>","synonymOf":{"accepted":true,"author":"Täckh.","name":"Veronica kaiseri","url":"/taxon/urn:lsid:ipni.org:names:812155-1","fqId":"urn:lsid:ipni.org:names:812155-1"},"url":"/taxon/urn:lsid:ipni.org:names:812352-1","fqId":"urn:lsid:ipni.org:names:812352-1"},{"accepted":true,"author":"Cheesman","kingdom":"Plantae","family":"Musaceae","name":"Musa itinerans","rank":"Species","snippet":" <b>General</b>: , is the 24,200th plant species saved at Kew's Millennium Seed Bank. <em>Musa</em>","url":"/taxon/urn:lsid:ipni.org:names:584951-1","fqId":"urn:lsid:ipni.org:names:584951-1","images":[{"thumbnail":"//storage.googleapis.com/powop-assets/kew_profiles/PPCONT_010456_thumbnail.jpg","fullsize":"//storage.googleapis.com/powop-assets/kew_profiles/PPCONT_010456_fullsize.jpg","caption":"Musa itinerans (Yunnan banana)"},{"thumbnail":"//storage.googleapis.com/powop-assets/kew_profiles/PPCONT_010457_thumbnail.jpg","fullsize":"//storage.googleapis.com/powop-assets/kew_profiles/PPCONT_010457_fullsize.jpg","caption":"Musa itinerans"},{"thumbnail":"//storage.googleapis.com/powop-assets/kew_profiles/PPCONT_010459_thumbnail.jpg","fullsize":"//storage.googleapis.com/powop-assets/kew_profiles/PPCONT_010459_fullsize.jpg","caption":"Musa itinerans seeds for banking"}]},{"accepted":true,"author":"Hook.f.","kingdom":"Plantae","family":"Musaceae","name":"Musa sanguinea","rank":"Species","snippet":" <b>General</b>: <em>Musa</em> sanguinea Hook. f. was discovered in 1869 by Mann","url":"/taxon/urn:lsid:ipni.org:names:797605-1","fqId":"urn:lsid:ipni.org:names:797605-1","images":[{"thumbnail":"//d2seqvvyy3b8p2.cloudfront.net/876772827c7b85862caf83bd0247f732.jpg","fullsize":"//d2seqvvyy3b8p2.cloudfront.net/2aa5b38fb0f72cb7ce5950dc1a4a674f.jpg","caption":"A specimen from Kew's Herbarium"}]},{"accepted":true,"author":"Colla","kingdom":"Plantae","family":"Musaceae","name":"Musa acuminata","rank":"Species","snippet":" <b>General</b>: <em>Musa</em> acuminata is the wild ancestor of the cultivated","url":"/taxon/urn:lsid:ipni.org:names:797527-1","fqId":"urn:lsid:ipni.org:names:797527-1","images":[{"thumbnail":"//storage.googleapis.com/powop-assets/kew_profiles/KPPCONT_085168_thumbnail.jpg","fullsize":"//storage.googleapis.com/powop-assets/kew_profiles/KPPCONT_085168_fullsize.jpg","caption":"Musa acuminata (banana)"},{"thumbnail":"//storage.googleapis.com/powop-assets/kew_profiles/KPPCONT_085170_thumbnail.jpg","fullsize":"//storage.googleapis.com/powop-assets/kew_profiles/KPPCONT_085170_fullsize.jpg","caption":"Photo of a Herbarium specimen of Musa acuminata, banana"},{"thumbnail":"//d2seqvvyy3b8p2.cloudfront.net/625236f1454808e18f90a8d01071c634.jpg","fullsize":"//d2seqvvyy3b8p2.cloudfront.net/9783d433448c75e62ef8975b36855b02.jpg","caption":"Musa acuminata 'Dwarf Cavendish'"}]},{"accepted":false,"author":"Perr.","kingdom":"Plantae","family":"Musaceae","name":"Musa abaca","rank":"Species","synonymOf":{"accepted":true,"author":"Née","name":"Musa textilis","url":"/taxon/urn:lsid:ipni.org:names:797617-1","fqId":"urn:lsid:ipni.org:names:797617-1"},"url":"/taxon/urn:lsid:ipni.org:names:797526-1","fqId":"urn:lsid:ipni.org:names:797526-1"},{"accepted":false,"author":"W.Bull","kingdom":"Plantae","family":"Musaceae","name":"Musa africana","rank":"Species","synonymOf":{"accepted":true,"author":"(Welw.) Cheesman","name":"Ensete ventricosum","url":"/taxon/urn:lsid:ipni.org:names:584810-1","fqId":"urn:lsid:ipni.org:names:584810-1"},"url":"/taxon/urn:lsid:ipni.org:names:77128698-1","fqId":"urn:lsid:ipni.org:names:77128698-1"},{"accepted":false,"author":"Chakravorti","kingdom":"Plantae","family":"Musaceae","name":"Musa agharkarii","rank":"Species","synonymOf":{"accepted":true,"name":"Ensete glaucum var. glaucum","url":"/taxon/urn:lsid:ipni.org:names:77172541-1","fqId":"urn:lsid:ipni.org:names:77172541-1"},"url":"/taxon/urn:lsid:ipni.org:names:584914-1","fqId":"urn:lsid:ipni.org:names:584914-1"},{"accepted":false,"author":"Miq.","kingdom":"Plantae","family":"Musaceae","name":"Musa amboinensis","rank":"Species","synonymOf":{"accepted":true,"author":"Née","name":"Musa textilis","url":"/taxon/urn:lsid:ipni.org:names:797617-1","fqId":"urn:lsid:ipni.org:names:797617-1"},"url":"/taxon/urn:lsid:ipni.org:names:797529-1","fqId":"urn:lsid:ipni.org:names:797529-1"},{"accepted":false,"author":"Gagnep.","kingdom":"Plantae","family":"Musaceae","name":"Musa angcorensis","rank":"Species","synonymOf":{"accepted":true,"author":"Baker","name":"Musa rosea","url":"/taxon/urn:lsid:ipni.org:names:797600-1","fqId":"urn:lsid:ipni.org:names:797600-1"},"url":"/taxon/urn:lsid:ipni.org:names:584915-1","fqId":"urn:lsid:ipni.org:names:584915-1"},{"accepted":false,"author":"N.W.Simmonds","kingdom":"Plantae","family":"Musaceae","name":"Musa angustigemma","rank":"Species","synonymOf":{"accepted":true,"author":"(N.W.Simmonds) Argent","name":"Musa peekelii subsp. angustigemma","url":"/taxon/urn:lsid:ipni.org:names:886871-1","fqId":"urn:lsid:ipni.org:names:886871-1"},"url":"/taxon/urn:lsid:ipni.org:names:584916-1","fqId":"urn:lsid:ipni.org:names:584916-1"},{"accepted":true,"author":"Argent","kingdom":"Plantae","family":"Musaceae","name":"Musa arfakiana","rank":"Species","url":"/taxon/urn:lsid:ipni.org:names:77105139-1","fqId":"urn:lsid:ipni.org:names:77105139-1"},{"accepted":true,"author":"Gogoi & Borah","kingdom":"Plantae","family":"Musaceae","name":"Musa argentii","rank":"Species","url":"/taxon/urn:lsid:ipni.org:names:77140200-1","fqId":"urn:lsid:ipni.org:names:77140200-1"},{"accepted":false,"author":"De Wild.","kingdom":"Plantae","family":"Musaceae","name":"Musa arnoldiana","rank":"Species","synonymOf":{"accepted":true,"author":"(Welw.) Cheesman","name":"Ensete ventricosum","url":"/taxon/urn:lsid:ipni.org:names:584810-1","fqId":"urn:lsid:ipni.org:names:584810-1"},"url":"/taxon/urn:lsid:ipni.org:names:797531-1","fqId":"urn:lsid:ipni.org:names:797531-1"},{"accepted":true,"author":"A.Joe, Sreejith & M.Sabu","kingdom":"Plantae","family":"Musaceae","name":"Musa arunachalensis","rank":"Species","url":"/taxon/urn:lsid:ipni.org:names:77133204-1","fqId":"urn:lsid:ipni.org:names:77133204-1"},{"accepted":false,"author":"W.Bull","kingdom":"Plantae","family":"Musaceae","name":"Musa assamica","rank":"Species","synonymOf":{"accepted":true,"author":"Hook.f.","name":"Musa sanguinea","url":"/taxon/urn:lsid:ipni.org:names:797605-1","fqId":"urn:lsid:ipni.org:names:797605-1"},"url":"/taxon/urn:lsid:ipni.org:names:797532-1","fqId":"urn:lsid:ipni.org:names:797532-1"},{"accepted":true,"author":"G.Mann ex Baker","kingdom":"Plantae","family":"Musaceae","name":"Musa aurantiaca","rank":"Species","url":"/taxon/urn:lsid:ipni.org:names:797533-1","fqId":"urn:lsid:ipni.org:names:797533-1","images":[{"thumbnail":"//d2seqvvyy3b8p2.cloudfront.net/4533df7081801ff6c7262efb255f5a97.jpg","fullsize":"//d2seqvvyy3b8p2.cloudfront.net/845a77452466850e1af4e21aa208559f.jpg","caption":"Musa aurantiaca"},{"thumbnail":"//d2seqvvyy3b8p2.cloudfront.net/d6d7dd89c20debb84ff74666907e9517.jpg","fullsize":"//d2seqvvyy3b8p2.cloudfront.net/fd1fd648acf81b3def217bdfcc566041.jpg","caption":"Musa aurantiaca"},{"thumbnail":"//d2seqvvyy3b8p2.cloudfront.net/12bc5d353ad3c9f22fa46cf79e070cbe.jpg","fullsize":"//d2seqvvyy3b8p2.cloudfront.net/87b60d42f83626632018ffe15339de6b.jpg","caption":"Musa aurantiaca"}]},{"accepted":true,"author":"Häkkinen","kingdom":"Plantae","family":"Musaceae","name":"Musa azizii","rank":"Species","url":"/taxon/urn:lsid:ipni.org:names:77067075-1","fqId":"urn:lsid:ipni.org:names:77067075-1"},{"accepted":false,"author":"Rendle & Greves","kingdom":"Plantae","family":"Musaceae","name":"Musa bagshawei","rank":"Species","synonymOf":{"accepted":true,"author":"(Welw.) Cheesman","name":"Ensete ventricosum","url":"/taxon/urn:lsid:ipni.org:names:584810-1","fqId":"urn:lsid:ipni.org:names:584810-1"},"url":"/taxon/urn:lsid:ipni.org:names:584917-1","fqId":"urn:lsid:ipni.org:names:584917-1"},{"accepted":false,"author":"Hook.f.","kingdom":"Plantae","family":"Musaceae","name":"Musa bakeri","rank":"Species","synonymOf":{"accepted":true,"author":"(Hook.f.) Häkkinen","name":"Musa balbisiana var. bakeri","url":"/taxon/urn:lsid:ipni.org:names:60454690-2","fqId":"urn:lsid:ipni.org:names:60454690-2"},"url":"/taxon/urn:lsid:ipni.org:names:797535-1","fqId":"urn:lsid:ipni.org:names:797535-1"}]}