{"totalResults":31,"page":1,"totalPages":2,"perPage":24,"cursor":"AoMIP0QmRTM0MjVGYWJhY2VhZVphcG90ZWNhLVRheG9uXzExODU0Mzc=","message":"If you would like to download and use the POWO data in a conciencious way, please use our official library pykew [https://github.com/RBGKew/pykew].","results":[{"accepted":false,"author":"(L.) I.C.Nielsen","kingdom":"Plantae","family":"Fabaceae","name":"Paraserianthes falcataria","rank":"Species","synonymOf":{"accepted":true,"author":"(L.) Greuter & R.Rankin","name":"Falcataria falcata","url":"/taxon/urn:lsid:ipni.org:names:60471823-2","fqId":"urn:lsid:ipni.org:names:60471823-2"},"url":"/taxon/urn:lsid:ipni.org:names:912943-1","fqId":"urn:lsid:ipni.org:names:912943-1"},{"accepted":true,"author":"(L.) Greuter & R.Rankin","kingdom":"Plantae","family":"Fabaceae","name":"Falcataria falcata","rank":"Species","snippet":" <b>Common Name</b>: batai","url":"/taxon/urn:lsid:ipni.org:names:60471823-2","fqId":"urn:lsid:ipni.org:names:60471823-2","images":[{"thumbnail":"//d2seqvvyy3b8p2.cloudfront.net/2e77df9a52e6a300b5b1d260ae21dc29.jpg","fullsize":"//d2seqvvyy3b8p2.cloudfront.net/654f286082d67e890c1fc60e4c5a5bf4.jpg","caption":"Falcataria falcata"},{"thumbnail":"//d2seqvvyy3b8p2.cloudfront.net/f5bee9fc8eb71c56aee14387bbbc15c8.jpg","fullsize":"//d2seqvvyy3b8p2.cloudfront.net/9f084c9d037ce5055fe9e941eb29da24.jpg","caption":"Falcataria falcata"},{"thumbnail":"//d2seqvvyy3b8p2.cloudfront.net/6f208105df79f38f0ae8094c6d8e7cf7.jpg","fullsize":"//d2seqvvyy3b8p2.cloudfront.net/b0b8737fbe9c67c29db9900edb7f272a.jpg","caption":"Falcataria falcata"}]},{"accepted":true,"author":"I.C.Nielsen","kingdom":"Plantae","family":"Fabaceae","name":"Paraserianthes","rank":"Genus","snippet":" <b>General</b>:  &amp; Grimes, 1996). <em>Paraserianthes</em> section <em>Falcataria</em>","url":"/taxon/urn:lsid:ipni.org:names:893319-1","fqId":"urn:lsid:ipni.org:names:893319-1","images":[{"thumbnail":"//d2seqvvyy3b8p2.cloudfront.net/6a3f4a8730d0b719b98c0975f9a3034b.jpg","fullsize":"//d2seqvvyy3b8p2.cloudfront.net/5323f07efb6e017fcbcd98101bd358ad.jpg","caption":"A specimen from Kew's Herbarium"},{"thumbnail":"//d2seqvvyy3b8p2.cloudfront.net/559e183dac19dd670c8b646776cdff4c.jpg","fullsize":"//d2seqvvyy3b8p2.cloudfront.net/27ed6279c8b317004e201eacf49f918e.jpg","caption":"A specimen from Kew's Herbarium"},{"thumbnail":"//d2seqvvyy3b8p2.cloudfront.net/7eda8a6c6f511f9f26b84c0501aabb05.jpg","fullsize":"//d2seqvvyy3b8p2.cloudfront.net/d84225ef74efa977ecbe301b4b4deb77.jpg","caption":"A specimen from Kew's Herbarium"}]},{"accepted":true,"author":"Britton & Rose","kingdom":"Plantae","family":"Fabaceae","name":"Ebenopsis","rank":"Genus","snippet":" <b>General</b>:  &amp; Grimes, 1996). <em>Paraserianthes</em> section <em>Falcataria</em>","url":"/taxon/urn:lsid:ipni.org:names:22328-1","fqId":"urn:lsid:ipni.org:names:22328-1","images":[{"thumbnail":"//storage.googleapis.com/powop-assets/lowo/KLOWO_401_thumbnail.jpg","fullsize":"//storage.googleapis.com/powop-assets/lowo/KLOWO_401_fullsize.jpg","caption":"Ebenopsis confinis (Standl.) Barneby &amp; J.W.Grimes"},{"thumbnail":"//d2seqvvyy3b8p2.cloudfront.net/44e7ec47f1584b1a673ea4d038ab1084.jpg","fullsize":"//d2seqvvyy3b8p2.cloudfront.net/f60d690267143c64a6e13da78c16c38b.jpg","caption":"A specimen from Kew's Herbarium"}]},{"accepted":true,"author":"Barneby & J.W.Grimes","kingdom":"Plantae","family":"Fabaceae","name":"Leucochloron","rank":"Genus","snippet":" <b>General</b>:  &amp; Grimes, 1996). <em>Paraserianthes</em> section <em>Falcataria</em>","url":"/taxon/urn:lsid:ipni.org:names:989404-1","fqId":"urn:lsid:ipni.org:names:989404-1","images":[{"thumbnail":"//d2seqvvyy3b8p2.cloudfront.net/2858d56019b0bc924cc00c14fa1a8759.jpg","fullsize":"//d2seqvvyy3b8p2.cloudfront.net/b4ba9822397986c1494ee9a79768cf3d.jpg","caption":"A specimen from Kew's Herbarium"},{"thumbnail":"//d2seqvvyy3b8p2.cloudfront.net/bcbcf2c78f9ac42cd3282399b932e7ad.jpg","fullsize":"//d2seqvvyy3b8p2.cloudfront.net/fb4ec41e1b409a389b882b91dab39337.jpg","caption":"A specimen from Kew's Herbarium"},{"thumbnail":"//d2seqvvyy3b8p2.cloudfront.net/80dcaf9ff61159124b6f8540783eab52.jpg","fullsize":"//d2seqvvyy3b8p2.cloudfront.net/db8f2f9a4afccd88eae8c98605e123ea.jpg","caption":"A specimen from Kew's Herbarium"}]},{"accepted":true,"author":"Benth.","kingdom":"Plantae","family":"Fabaceae","name":"Lysiloma","rank":"Genus","snippet":" <b>General</b>:  &amp; Grimes, 1996). <em>Paraserianthes</em> section <em>Falcataria</em>","url":"/taxon/urn:lsid:ipni.org:names:30038751-2","fqId":"urn:lsid:ipni.org:names:30038751-2","images":[{"thumbnail":"//d2seqvvyy3b8p2.cloudfront.net/7f821c71fc75eb743f2f89be797bdf53.jpg","fullsize":"//d2seqvvyy3b8p2.cloudfront.net/9a8de142ed1bf60068a6682de21cd8c2.jpg","caption":"Lysiloma acapulcense"},{"thumbnail":"//d2seqvvyy3b8p2.cloudfront.net/8aa438289fe403ab5f0009b977ead11e.jpg","fullsize":"//d2seqvvyy3b8p2.cloudfront.net/c8faf8deda2b144737d185a09b092b5f.jpg","caption":"Lysiloma microphylla"},{"thumbnail":"//d2seqvvyy3b8p2.cloudfront.net/fbdc06f8262f13787e109ed1b1d3c03a.jpg","fullsize":"//d2seqvvyy3b8p2.cloudfront.net/eb93ea382237010a1649830b7e41b106.jpg","caption":"Lysiloma acapulcense"}]},{"accepted":true,"author":"Britton & Rose","kingdom":"Plantae","family":"Fabaceae","name":"Painteria","rank":"Genus","snippet":" <b>General</b>:  &amp; Grimes, 1996). <em>Paraserianthes</em> section <em>Falcataria</em>","url":"/taxon/urn:lsid:ipni.org:names:296882-2","fqId":"urn:lsid:ipni.org:names:296882-2","images":[{"thumbnail":"//d2seqvvyy3b8p2.cloudfront.net/bb0b86fcd36b996af4f736a1c278cabc.jpg","fullsize":"//d2seqvvyy3b8p2.cloudfront.net/af8450123b1163a22f89d879025545bb.jpg","caption":"Painteria leptophylla"},{"thumbnail":"//d2seqvvyy3b8p2.cloudfront.net/a457e5c208e21833097b11706a40494c.jpg","fullsize":"//d2seqvvyy3b8p2.cloudfront.net/d163b9995dc2b489c478094750b22ae9.jpg","caption":"Painteria leptophylla"},{"thumbnail":"//d2seqvvyy3b8p2.cloudfront.net/10ad036784ea6941db50f0ab1b533ade.jpg","fullsize":"//d2seqvvyy3b8p2.cloudfront.net/57893a4615a26495d9248827a458c81a.jpg","caption":"Painteria leptophylla"}]},{"accepted":true,"author":"Koord.","kingdom":"Plantae","family":"Fabaceae","name":"Wallaceodendron","rank":"Genus","snippet":" <b>General</b>:  &amp; Grimes, 1996). <em>Paraserianthes</em> section <em>Falcataria</em>","url":"/taxon/urn:lsid:ipni.org:names:23802-1","fqId":"urn:lsid:ipni.org:names:23802-1","images":[{"thumbnail":"//d2seqvvyy3b8p2.cloudfront.net/97e423f8bb6b6a313ac6688417375bd9.jpg","fullsize":"//d2seqvvyy3b8p2.cloudfront.net/ee0c40eee2f55dbfba06d62fbfe66e93.jpg","caption":"A specimen from Kew's Herbarium"}]},{"accepted":true,"author":"Barneby & J.W.Grimes","kingdom":"Plantae","family":"Fabaceae","name":"Blanchetiodendron","rank":"Genus","snippet":" <b>General</b>:  &amp; Grimes, 1996). <em>Paraserianthes</em> section <em>Falcataria</em>","url":"/taxon/urn:lsid:ipni.org:names:989402-1","fqId":"urn:lsid:ipni.org:names:989402-1","images":[{"thumbnail":"//d2seqvvyy3b8p2.cloudfront.net/59f812fa4f865dfa36110d1bcc127bd3.jpg","fullsize":"//d2seqvvyy3b8p2.cloudfront.net/9dad50f398965fec024739ddf5cfa529.jpg","caption":"A specimen from Kew's Herbarium"}]},{"accepted":true,"author":"Ducke","kingdom":"Plantae","family":"Fabaceae","name":"Cedrelinga","rank":"Genus","snippet":" <b>General</b>:  &amp; Grimes, 1996). <em>Paraserianthes</em> section <em>Falcataria</em>","url":"/taxon/urn:lsid:ipni.org:names:296427-2","fqId":"urn:lsid:ipni.org:names:296427-2","images":[{"thumbnail":"//d2seqvvyy3b8p2.cloudfront.net/13f4cda70768beb254bc50ed7ab0d3df.jpg","fullsize":"//d2seqvvyy3b8p2.cloudfront.net/a45da00d861c3b47b62057c075f0a213.jpg","caption":"Cedrelinga catenaeformis Ducke"},{"thumbnail":"//d2seqvvyy3b8p2.cloudfront.net/ac066956243e8e649547e10f59678d45.jpg","fullsize":"//d2seqvvyy3b8p2.cloudfront.net/c50d0e48de044b2ce252fa3700a01682.jpg","caption":"Cedrelinga catenaeformis Ducke"},{"thumbnail":"//d2seqvvyy3b8p2.cloudfront.net/00765f232417047b86baff26741cd5cf.jpg","fullsize":"//d2seqvvyy3b8p2.cloudfront.net/574a52f0feb50bbdbc2b9c9a7f771919.jpg","caption":"Cedrelinga catenaeformis Ducke"}]},{"accepted":true,"author":"(Benth.) Record","kingdom":"Plantae","family":"Fabaceae","name":"Chloroleucon","rank":"Genus","snippet":" <b>General</b>:  &amp; Grimes, 1996). <em>Paraserianthes</em> section <em>Falcataria</em>","url":"/taxon/urn:lsid:ipni.org:names:21999-1","fqId":"urn:lsid:ipni.org:names:21999-1","images":[{"thumbnail":"//d2seqvvyy3b8p2.cloudfront.net/d026fa3bd5dead23ba722602afb82401.jpg","fullsize":"//d2seqvvyy3b8p2.cloudfront.net/47915ccfeaf3917e862155f3e5b8fa65.jpg","caption":"Chloroleucon foliolosum"},{"thumbnail":"//d2seqvvyy3b8p2.cloudfront.net/abda585dc2416d602c43656aeb7d0e60.jpg","fullsize":"//d2seqvvyy3b8p2.cloudfront.net/04c46203e481c6a7aa270905040d0470.jpg","caption":"Chloroleucon acacioides (Ducke) Barneby &amp; J. W. Grimes"},{"thumbnail":"//d2seqvvyy3b8p2.cloudfront.net/e316a1f2bdfcac89fa291be145f2c4d5.jpg","fullsize":"//d2seqvvyy3b8p2.cloudfront.net/74b0b10a49b375981423ed0bc3478b39.jpg","caption":"Chloroleucon acacioides (Ducke) Barneby &amp; J. W. Grimes"}]},{"accepted":true,"author":"Britton & Rose","kingdom":"Plantae","family":"Fabaceae","name":"Cojoba","rank":"Genus","snippet":" <b>General</b>:  &amp; Grimes, 1996). <em>Paraserianthes</em> section <em>Falcataria</em>","url":"/taxon/urn:lsid:ipni.org:names:297125-2","fqId":"urn:lsid:ipni.org:names:297125-2","images":[{"thumbnail":"//storage.googleapis.com/powop-assets/kew_profiles/Cojoba_graciliflora_Lulu_main_web%20(Main)_thumbnail.jpg","fullsize":"//storage.googleapis.com/powop-assets/kew_profiles/Cojoba_graciliflora_Lulu_main_web%20(Main)_fullsize.jpg","caption":"Cojoba graciliflora (Guadeloupe blackbead)"},{"thumbnail":"//storage.googleapis.com/powop-assets/kew_profiles/KPPCONT_065287_thumbnail.jpg","fullsize":"//storage.googleapis.com/powop-assets/kew_profiles/KPPCONT_065287_fullsize.jpg","caption":"Cojoba graciliflora (Guadeloupe blackbead) specimen"},{"thumbnail":"//d2seqvvyy3b8p2.cloudfront.net/4bfabad0f2597c31e9e90124e070515a.jpg","fullsize":"//d2seqvvyy3b8p2.cloudfront.net/8d91ebe4c99c0fd10d5f2afb10062ecb.jpg","caption":"Cojoba arborea"}]},{"accepted":true,"author":"Barneby & J.W.Grimes","kingdom":"Plantae","family":"Fabaceae","name":"Hydrochorea","rank":"Genus","snippet":" <b>General</b>:  &amp; Grimes, 1996). <em>Paraserianthes</em> section <em>Falcataria</em>","url":"/taxon/urn:lsid:ipni.org:names:989339-1","fqId":"urn:lsid:ipni.org:names:989339-1","images":[{"thumbnail":"//d2seqvvyy3b8p2.cloudfront.net/551a80666cc5d01b8148f4d53ba010bd.jpg","fullsize":"//d2seqvvyy3b8p2.cloudfront.net/e4a0922321a54174bf408ff9133ea083.jpg","caption":"Hydrochorea marginata (Benth.) Barneby &amp; J.W.Grimes"},{"thumbnail":"//d2seqvvyy3b8p2.cloudfront.net/c2bcc230cd0bb4802f3da9927998dc74.jpg","fullsize":"//d2seqvvyy3b8p2.cloudfront.net/a6d3af8bf61b725338364dbc476d244f.jpg","caption":"Hydrochorea marginata (Benth.) Barneby &amp; J.W.Grimes"},{"thumbnail":"//d2seqvvyy3b8p2.cloudfront.net/77c85c42be19124b2fa81b5751988a6d.jpg","fullsize":"//d2seqvvyy3b8p2.cloudfront.net/b1042d5831c9ba8a90b7d1dfbe08116c.jpg","caption":"Hydrochorea marginata (Benth.) Barneby &amp; J.W.Grimes"}]},{"accepted":true,"author":"(Benth.) Merr.","kingdom":"Plantae","family":"Fabaceae","name":"Samanea","rank":"Genus","snippet":" <b>General</b>:  &amp; Grimes, 1996). <em>Paraserianthes</em> section <em>Falcataria</em>","url":"/taxon/urn:lsid:ipni.org:names:295968-2","fqId":"urn:lsid:ipni.org:names:295968-2","images":[{"thumbnail":"//d2seqvvyy3b8p2.cloudfront.net/bc237e2658f47dbd0dd1f38717b1520a.jpg","fullsize":"//d2seqvvyy3b8p2.cloudfront.net/5cf99bdb03fe337728a4f50c69add42e.jpg","caption":"Samanea saman"},{"thumbnail":"//d2seqvvyy3b8p2.cloudfront.net/bba65f08fabbe01e9e747d12e7a24528.jpg","fullsize":"//d2seqvvyy3b8p2.cloudfront.net/60bdbebcd0127088e4c7b038f98cae04.jpg","caption":"Samanea saman"},{"thumbnail":"//d2seqvvyy3b8p2.cloudfront.net/d64c2d02d2f463d5cdce28f171a16e0a.jpg","fullsize":"//d2seqvvyy3b8p2.cloudfront.net/51fca45026674b08d6ad820299ea8f80.jpg","caption":"Samanea saman"}]},{"accepted":true,"author":"Barneby & J.W.Grimes","kingdom":"Plantae","family":"Fabaceae","name":"Sphinga","rank":"Genus","snippet":" <b>General</b>:  &amp; Grimes, 1996). <em>Paraserianthes</em> section <em>Falcataria</em>","url":"/taxon/urn:lsid:ipni.org:names:989420-1","fqId":"urn:lsid:ipni.org:names:989420-1","images":[{"thumbnail":"//storage.googleapis.com/powop-assets/lowo/KLOWO_984_thumbnail.jpg","fullsize":"//storage.googleapis.com/powop-assets/lowo/KLOWO_984_fullsize.jpg","caption":"Sphinga acatlensis (Benth.) Barneby &amp; J.W.Grimes"},{"thumbnail":"//d2seqvvyy3b8p2.cloudfront.net/75d41128c3e4f077926d2b9ae88d6cd1.jpg","fullsize":"//d2seqvvyy3b8p2.cloudfront.net/f5b06c0e754191c9f8d4f1695b21ffd2.jpg","caption":"A specimen from Kew's Herbarium"}]},{"accepted":true,"author":"Benth.","kingdom":"Plantae","family":"Fabaceae","name":"Calliandra","rank":"Genus","snippet":" <b>General</b>:  &amp; Grimes, 1996). <em>Paraserianthes</em> section <em>Falcataria</em>","url":"/taxon/urn:lsid:ipni.org:names:331445-2","fqId":"urn:lsid:ipni.org:names:331445-2","images":[{"thumbnail":"//d2seqvvyy3b8p2.cloudfront.net/3a473f8a8fb5f1ec41c63eb060050cfa.jpg","fullsize":"//d2seqvvyy3b8p2.cloudfront.net/f28128a370bdbde87c17dcc41c2168aa.jpg","caption":"Calliandra"},{"thumbnail":"//d2seqvvyy3b8p2.cloudfront.net/1f2fd16da43709bfdb4045dbd4e162f8.jpg","fullsize":"//d2seqvvyy3b8p2.cloudfront.net/eca3558a8e84fadc0553dc6490a4b6f9.jpg","caption":"Calliandra"},{"thumbnail":"//d2seqvvyy3b8p2.cloudfront.net/f3aa50225248b69111b945292d350017.jpg","fullsize":"//d2seqvvyy3b8p2.cloudfront.net/8b091110455f8e19ce5cf400a1ae336c.jpg","caption":"Calliandra tergemina var. emarginata"}]},{"accepted":true,"author":"Pittier","kingdom":"Plantae","family":"Fabaceae","name":"Abarema","rank":"Genus","snippet":" <b>General</b>:  &amp; Grimes, 1996). <em>Paraserianthes</em> section <em>Falcataria</em>","url":"/taxon/urn:lsid:ipni.org:names:30032383-2","fqId":"urn:lsid:ipni.org:names:30032383-2","images":[{"thumbnail":"//d2seqvvyy3b8p2.cloudfront.net/ca6937225710a39ad504d8554429ae5f.jpg","fullsize":"//d2seqvvyy3b8p2.cloudfront.net/bbeb836366406b1f2cf470c00ea37cb9.jpg","caption":"Abarema filamentosa Pittier"},{"thumbnail":"//d2seqvvyy3b8p2.cloudfront.net/2db2cf8ef07fbf7a5071a18757acc187.jpg","fullsize":"//d2seqvvyy3b8p2.cloudfront.net/0f705c2968ab15c5c2b6d8173987ba06.jpg","caption":"Abarema filamentosa Pittier"},{"thumbnail":"//d2seqvvyy3b8p2.cloudfront.net/2019fe608204ed93a29fee8e3d237f48.jpg","fullsize":"//d2seqvvyy3b8p2.cloudfront.net/b971bfb563317ebad4f677c88d56498c.jpg","caption":"Abarema filamentosa Pittier"}]},{"accepted":true,"author":"(Benth.) Hassk.","kingdom":"Plantae","family":"Fabaceae","name":"Cathormion","rank":"Genus","snippet":" <b>General</b>:  &amp; Grimes, 1996). <em>Paraserianthes</em> section <em>Falcataria</em>","url":"/taxon/urn:lsid:ipni.org:names:21956-1","fqId":"urn:lsid:ipni.org:names:21956-1","images":[{"thumbnail":"//d2seqvvyy3b8p2.cloudfront.net/cf9e811f89e66e7aa8c76e9f8185212a.jpg","fullsize":"//d2seqvvyy3b8p2.cloudfront.net/732f52109b2f3a41a879984e7ddba763.jpg","caption":"A specimen from Kew's Herbarium"},{"thumbnail":"//d2seqvvyy3b8p2.cloudfront.net/326d8460ac0635e29c558c1aa447ecc0.jpg","fullsize":"//d2seqvvyy3b8p2.cloudfront.net/4d8eb58a6032b96a68b74da8a7f588bf.jpg","caption":"A specimen from Kew's Herbarium"},{"thumbnail":"//d2seqvvyy3b8p2.cloudfront.net/b2cf81acbfc9f9c568784d3850ccaf1c.jpg","fullsize":"//d2seqvvyy3b8p2.cloudfront.net/83998774fa7adbfa487bfde51fea39a0.jpg","caption":"A specimen from Kew's Herbarium"}]},{"accepted":true,"author":"Mart.","kingdom":"Plantae","family":"Fabaceae","name":"Enterolobium","rank":"Genus","snippet":" <b>General</b>:  &amp; Grimes, 1996). <em>Paraserianthes</em> section <em>Falcataria</em>","url":"/taxon/urn:lsid:ipni.org:names:30004353-2","fqId":"urn:lsid:ipni.org:names:30004353-2","images":[{"thumbnail":"//d2seqvvyy3b8p2.cloudfront.net/33df8aa9e0078f5913b15cefbdd9e14d.jpg","fullsize":"//d2seqvvyy3b8p2.cloudfront.net/24cb3836d44e9869086c9718ca24985e.jpg","caption":"Lateral view of Enterolobium fruit"},{"thumbnail":"//d2seqvvyy3b8p2.cloudfront.net/316307ea6982e10b1dafa3c50bffb146.jpg","fullsize":"//d2seqvvyy3b8p2.cloudfront.net/a8a286744902d8e041d72c7bfc5b439b.jpg","caption":"Enterolobium cyclocarpum"},{"thumbnail":"//d2seqvvyy3b8p2.cloudfront.net/66338fb55a81594c55fa34a903c01cec.jpg","fullsize":"//d2seqvvyy3b8p2.cloudfront.net/3e554be610091e1ef380c7a5e81d49ea.jpg","caption":"Enterolobium schomburgkii (Benth.) Benth."}]},{"accepted":true,"author":"I.C.Nielsen","kingdom":"Plantae","family":"Fabaceae","name":"Pararchidendron","rank":"Genus","snippet":" <b>General</b>:  &amp; Grimes, 1996). <em>Paraserianthes</em> section <em>Falcataria</em>","url":"/taxon/urn:lsid:ipni.org:names:893318-1","fqId":"urn:lsid:ipni.org:names:893318-1","images":[{"thumbnail":"//storage.googleapis.com/powop-assets/lowo/KLOWO_790_thumbnail.jpg","fullsize":"//storage.googleapis.com/powop-assets/lowo/KLOWO_790_fullsize.jpg","caption":"Pararchidendron pruinosum (Benth.) I.C.Nielsen"},{"thumbnail":"//d2seqvvyy3b8p2.cloudfront.net/1247bc5ad26841872a21d96f51ff2fd4.jpg","fullsize":"//d2seqvvyy3b8p2.cloudfront.net/e4dd8e20abc1741b1aebe85ad5b7676d.jpg","caption":"A specimen from Kew's Herbarium"},{"thumbnail":"//d2seqvvyy3b8p2.cloudfront.net/a3e6c0829b55909c4b0a2dc14d6d76a7.jpg","fullsize":"//d2seqvvyy3b8p2.cloudfront.net/05ac57449eab2464c2bcbef57f19f38f.jpg","caption":"A specimen from Kew's Herbarium"}]},{"accepted":true,"author":"Mart.","kingdom":"Plantae","family":"Fabaceae","name":"Pithecellobium","rank":"Genus","snippet":" <b>General</b>:  &amp; Grimes, 1996). <em>Paraserianthes</em> section <em>Falcataria</em>","url":"/taxon/urn:lsid:ipni.org:names:331859-2","fqId":"urn:lsid:ipni.org:names:331859-2","images":[{"thumbnail":"//d2seqvvyy3b8p2.cloudfront.net/57c988e0a997dfbe0156d7974242ef2b.jpg","fullsize":"//d2seqvvyy3b8p2.cloudfront.net/6c57b219310e82f852ed4f1293e266e7.jpg","caption":"Pithecellobium dulce"},{"thumbnail":"//storage.googleapis.com/powop-assets/neotropikey/Copy%20of%20Pithecellobium_excelcum@GPLewis,RBGKew_thumbnail.jpg","fullsize":"//storage.googleapis.com/powop-assets/neotropikey/Copy%20of%20Pithecellobium_excelcum@GPLewis,RBGKew_fullsize.jpg","caption":"Pithecellobium excelsum (Leguminosae (Mimosoideae))"},{"thumbnail":"//d2seqvvyy3b8p2.cloudfront.net/066648b9873d963e72cc4cdc203b7737.jpg","fullsize":"//d2seqvvyy3b8p2.cloudfront.net/903ccdc7aa38bf8b2affe309d42b1781.jpg","caption":"Væksthusene, Aarhus C, Denmark, 30 April 2021"}]},{"accepted":true,"author":"Benth.","kingdom":"Plantae","family":"Fabaceae","name":"Serianthes","rank":"Genus","snippet":" <b>General</b>:  &amp; Grimes, 1996). <em>Paraserianthes</em> section <em>Falcataria</em>","url":"/taxon/urn:lsid:ipni.org:names:23545-1","fqId":"urn:lsid:ipni.org:names:23545-1","images":[{"thumbnail":"//d2seqvvyy3b8p2.cloudfront.net/4274d8125ccd13ae54b1998c3aab1812.jpg","fullsize":"//d2seqvvyy3b8p2.cloudfront.net/7e3436e36e8de242749dc2f9b89bd4d5.jpg","caption":"A specimen from Kew's Herbarium"},{"thumbnail":"//d2seqvvyy3b8p2.cloudfront.net/c4f4ad18a14860e55457496256e307e4.jpg","fullsize":"//d2seqvvyy3b8p2.cloudfront.net/4bf6a3cb0e1228aac1a07da82299e44e.jpg","caption":"A specimen from Kew's Herbarium"},{"thumbnail":"//d2seqvvyy3b8p2.cloudfront.net/b9cfad897a1c84b427f76def8d6ecfd7.jpg","fullsize":"//d2seqvvyy3b8p2.cloudfront.net/63572b69cd3903c7f6486934c8eab5b7.jpg","caption":"A specimen from Kew's Herbarium"}]},{"accepted":true,"author":"Kosterm.","kingdom":"Plantae","family":"Fabaceae","name":"Thailentadopsis","rank":"Genus","snippet":" <b>General</b>:  &amp; Grimes, 1996). <em>Paraserianthes</em> section <em>Falcataria</em>","url":"/taxon/urn:lsid:ipni.org:names:328181-2","fqId":"urn:lsid:ipni.org:names:328181-2","images":[{"thumbnail":"//d2seqvvyy3b8p2.cloudfront.net/a7f2c0170af6783c1fc26a5ec3d57118.jpg","fullsize":"//d2seqvvyy3b8p2.cloudfront.net/6ddc8a13e0c2767aa21723e8810157ac.jpg","caption":"Thailentadopsis nitida"},{"thumbnail":"//d2seqvvyy3b8p2.cloudfront.net/33b7c6cb07e714509fd424166de1873c.jpg","fullsize":"//d2seqvvyy3b8p2.cloudfront.net/cf91cbf84e9dd7b77110b8dfd41549d8.jpg","caption":"Thailentadopsis nitida"},{"thumbnail":"//d2seqvvyy3b8p2.cloudfront.net/bdfb2fdf3ea16478dc2632a43e2505a6.jpg","fullsize":"//d2seqvvyy3b8p2.cloudfront.net/dfa0befde6f17bf037757f685eceed62.jpg","caption":"Thailentadopsis nitida"}]},{"accepted":true,"author":"H.M.Hern.","kingdom":"Plantae","family":"Fabaceae","name":"Zapoteca","rank":"Genus","snippet":" <b>General</b>:  &amp; Grimes, 1996). <em>Paraserianthes</em> section <em>Falcataria</em>","url":"/taxon/urn:lsid:ipni.org:names:925038-1","fqId":"urn:lsid:ipni.org:names:925038-1","images":[{"thumbnail":"//d2seqvvyy3b8p2.cloudfront.net/1d0843954f0d58e361af1f55c47887ef.jpg","fullsize":"//d2seqvvyy3b8p2.cloudfront.net/be7dfef19a3d4513ff3bfc54b667e9a1.jpg","caption":"Zapoteca portoricensis subsp. portoricensis"},{"thumbnail":"//storage.googleapis.com/powop-assets/neotropikey/Copy%20of%20Zapoteca_caracasana@GPLewis,RBGKew_thumbnail.jpg","fullsize":"//storage.googleapis.com/powop-assets/neotropikey/Copy%20of%20Zapoteca_caracasana@GPLewis,RBGKew_fullsize.jpg","caption":"Zapoteca caracasana (Leguminosae (Mimosoideae))"},{"thumbnail":"//d2seqvvyy3b8p2.cloudfront.net/1916666203261bbad7f363704c951932.jpg","fullsize":"//d2seqvvyy3b8p2.cloudfront.net/9da447a8165a3e5a09339e3adaae51a3.jpg","caption":"Zapoteca portoricensis subsp. portoricensis"}]}]}