"{\"totalResults\":810,\"page\":1,\"totalPages\":34,\"perPage\":24,\"cursor\":\"AoMIQO/jyz8BNjAwVXJ0aWNhY2VhZVVydGljYWFwcGVuZGljdWxhdGEtVGF4b25fMTM3NjM3Nw==\",\"message\":\"If you would like to download and use the POWO data in a conciencious way, please use our official library pykew [https://github.com/RBGKew/pykew].\",\"results\":[{\"accepted\":true,\"author\":\"L.\",\"kingdom\":\"Plantae\",\"family\":\"Urticaceae\",\"name\":\"Urtica\",\"rank\":\"Genus\",\"snippet\":\" <b>Common Name</b>: nettle\",\"url\":\"/taxon/urn:lsid:ipni.org:names:30002031-2\",\"fqId\":\"urn:lsid:ipni.org:names:30002031-2\",\"images\":[{\"thumbnail\":\"//storage.googleapis.com/powop-assets/kew_profiles/PPCONT_009523_thumbnail.jpg\",\"fullsize\":\"//storage.googleapis.com/powop-assets/kew_profiles/PPCONT_009523_fullsize.jpg\",\"caption\":\"Urtica dioica (nettle)\"},{\"thumbnail\":\"//d2seqvvyy3b8p2.cloudfront.net/5c0ada9a70b6f097d0a7bf14a51aceb1.jpg\",\"fullsize\":\"//d2seqvvyy3b8p2.cloudfront.net/1109210ca1305f9785b09585078bf3fd.jpg\",\"caption\":\"Urtica chamaedryoides\"},{\"thumbnail\":\"//storage.googleapis.com/powop-assets/kew_profiles/PPCONT_009525_thumbnail.jpg\",\"fullsize\":\"//storage.googleapis.com/powop-assets/kew_profiles/PPCONT_009525_fullsize.jpg\",\"caption\":\"Urtica dioica\"}]},{\"accepted\":true,\"author\":\"L.\",\"kingdom\":\"Plantae\",\"family\":\"Urticaceae\",\"name\":\"Urtica dioica\",\"rank\":\"Species\",\"snippet\":\" <b>General</b>: Geography and distribution   <em>Urtica</em> dioica  is widespread\",\"url\":\"/taxon/urn:lsid:ipni.org:names:260630-2\",\"fqId\":\"urn:lsid:ipni.org:names:260630-2\",\"images\":[{\"thumbnail\":\"//storage.googleapis.com/powop-assets/kew_profiles/PPCONT_009523_thumbnail.jpg\",\"fullsize\":\"//storage.googleapis.com/powop-assets/kew_profiles/PPCONT_009523_fullsize.jpg\",\"caption\":\"Urtica dioica (nettle)\"},{\"thumbnail\":\"//storage.googleapis.com/powop-assets/kew_profiles/PPCONT_009525_thumbnail.jpg\",\"fullsize\":\"//storage.googleapis.com/powop-assets/kew_profiles/PPCONT_009525_fullsize.jpg\",\"caption\":\"Urtica dioica\"},{\"thumbnail\":\"//storage.googleapis.com/powop-assets/kew_profiles/PPCONT_009527_thumbnail.jpg\",\"fullsize\":\"//storage.googleapis.com/powop-assets/kew_profiles/PPCONT_009527_fullsize.jpg\",\"caption\":\"Urtica dioica\"}]},{\"accepted\":false,\"author\":\"Zenker\",\"kingdom\":\"Plantae\",\"family\":\"Urticaceae\",\"name\":\"Urtica acerifolia\",\"rank\":\"Species\",\"synonymOf\":{\"accepted\":true,\"name\":\"Girardinia diversifolia subsp. diversifolia\",\"url\":\"/taxon/urn:lsid:ipni.org:names:77230547-1\",\"fqId\":\"urn:lsid:ipni.org:names:77230547-1\"},\"url\":\"/taxon/urn:lsid:ipni.org:names:857380-1\",\"fqId\":\"urn:lsid:ipni.org:names:857380-1\"},{\"accepted\":false,\"author\":\"Poir.\",\"kingdom\":\"Plantae\",\"family\":\"Urticaceae\",\"name\":\"Urtica acuminata\",\"rank\":\"Species\",\"synonymOf\":{\"accepted\":true,\"author\":\"(Poir.) Gaudich. ex Decne.\",\"name\":\"Urera acuminata\",\"url\":\"/taxon/urn:lsid:ipni.org:names:856965-1\",\"fqId\":\"urn:lsid:ipni.org:names:856965-1\"},\"url\":\"/taxon/urn:lsid:ipni.org:names:857381-1\",\"fqId\":\"urn:lsid:ipni.org:names:857381-1\"},{\"accepted\":false,\"author\":\"Hochst. ex Steud.\",\"kingdom\":\"Plantae\",\"family\":\"Urticaceae\",\"name\":\"Urtica adoensis\",\"rank\":\"Species\",\"synonymOf\":{\"accepted\":true,\"name\":\"Girardinia diversifolia subsp. diversifolia\",\"url\":\"/taxon/urn:lsid:ipni.org:names:77230547-1\",\"fqId\":\"urn:lsid:ipni.org:names:77230547-1\"},\"url\":\"/taxon/urn:lsid:ipni.org:names:77209504-1\",\"fqId\":\"urn:lsid:ipni.org:names:77209504-1\"},{\"accepted\":false,\"author\":\"L.\",\"kingdom\":\"Plantae\",\"family\":\"Urticaceae\",\"name\":\"Urtica aestuans\",\"rank\":\"Species\",\"synonymOf\":{\"accepted\":true,\"author\":\"(L.) Chew\",\"name\":\"Laportea aestuans\",\"url\":\"/taxon/urn:lsid:ipni.org:names:135476-2\",\"fqId\":\"urn:lsid:ipni.org:names:135476-2\"},\"url\":\"/taxon/urn:lsid:ipni.org:names:260599-2\",\"fqId\":\"urn:lsid:ipni.org:names:260599-2\"},{\"accepted\":false,\"author\":\"Hook. & Arn.\",\"kingdom\":\"Plantae\",\"family\":\"Urticaceae\",\"name\":\"Urtica affinis\",\"rank\":\"Species\",\"synonymOf\":{\"accepted\":true,\"author\":\"(L.) Chew\",\"name\":\"Laportea interrupta\",\"url\":\"/taxon/urn:lsid:ipni.org:names:854275-1\",\"fqId\":\"urn:lsid:ipni.org:names:854275-1\"},\"url\":\"/taxon/urn:lsid:ipni.org:names:857385-1\",\"fqId\":\"urn:lsid:ipni.org:names:857385-1\"},{\"accepted\":false,\"author\":\"Thunb.\",\"kingdom\":\"Plantae\",\"family\":\"Urticaceae\",\"name\":\"Urtica afra\",\"rank\":\"Species\",\"synonymOf\":{\"accepted\":true,\"author\":\"(Thunb.) Friis & Wilmot-Dear\",\"name\":\"Didymodoxa afra\",\"url\":\"/taxon/urn:lsid:ipni.org:names:942242-1\",\"fqId\":\"urn:lsid:ipni.org:names:942242-1\"},\"url\":\"/taxon/urn:lsid:ipni.org:names:857457-1\",\"fqId\":\"urn:lsid:ipni.org:names:857457-1\"},{\"accepted\":false,\"author\":\"Blume\",\"kingdom\":\"Plantae\",\"family\":\"Urticaceae\",\"name\":\"Urtica alba\",\"rank\":\"Species\",\"synonymOf\":{\"accepted\":true,\"author\":\"(Poir.) Wedd.\",\"name\":\"Leucosyke capitellata\",\"url\":\"/taxon/urn:lsid:ipni.org:names:854388-1\",\"fqId\":\"urn:lsid:ipni.org:names:854388-1\"},\"url\":\"/taxon/urn:lsid:ipni.org:names:857388-1\",\"fqId\":\"urn:lsid:ipni.org:names:857388-1\"},{\"accepted\":false,\"author\":\"Raf.\",\"kingdom\":\"Plantae\",\"family\":\"Urticaceae\",\"name\":\"Urtica alba\",\"rank\":\"Species\",\"synonymOf\":{\"accepted\":true,\"name\":\"Urtica chamaedryoides subsp. chamaedryoides\",\"url\":\"/taxon/urn:lsid:ipni.org:names:77224670-1\",\"fqId\":\"urn:lsid:ipni.org:names:77224670-1\"},\"url\":\"/taxon/urn:lsid:ipni.org:names:857390-1\",\"fqId\":\"urn:lsid:ipni.org:names:857390-1\"},{\"accepted\":false,\"author\":\"Steud.\",\"kingdom\":\"Plantae\",\"family\":\"Urticaceae\",\"name\":\"Urtica albidopunctata\",\"rank\":\"Species\",\"synonymOf\":{\"accepted\":true,\"name\":\"Pipturus argenteus var. argenteus\",\"url\":\"/taxon/urn:lsid:ipni.org:names:77226772-1\",\"fqId\":\"urn:lsid:ipni.org:names:77226772-1\"},\"url\":\"/taxon/urn:lsid:ipni.org:names:857393-1\",\"fqId\":\"urn:lsid:ipni.org:names:857393-1\"},{\"accepted\":false,\"author\":\"Poir.\",\"kingdom\":\"Plantae\",\"family\":\"Urticaceae\",\"name\":\"Urtica alceifolia\",\"rank\":\"Species\",\"synonymOf\":{\"accepted\":true,\"author\":\"(Jacq.) Gaudich. ex Griseb.\",\"name\":\"Urera caracasana\",\"url\":\"/taxon/urn:lsid:ipni.org:names:856982-1\",\"fqId\":\"urn:lsid:ipni.org:names:856982-1\"},\"url\":\"/taxon/urn:lsid:ipni.org:names:857394-1\",\"fqId\":\"urn:lsid:ipni.org:names:857394-1\"},{\"accepted\":false,\"author\":\"L.\",\"kingdom\":\"Plantae\",\"family\":\"Urticaceae\",\"name\":\"Urtica alienata\",\"rank\":\"Species\",\"synonymOf\":{\"accepted\":true,\"author\":\"(L.) Benn.\",\"name\":\"Pouzolzia zeylanica\",\"url\":\"/taxon/urn:lsid:ipni.org:names:856264-1\",\"fqId\":\"urn:lsid:ipni.org:names:856264-1\"},\"url\":\"/taxon/urn:lsid:ipni.org:names:857396-1\",\"fqId\":\"urn:lsid:ipni.org:names:857396-1\"},{\"accepted\":false,\"author\":\"Roth ex Blume\",\"kingdom\":\"Plantae\",\"family\":\"Urticaceae\",\"name\":\"Urtica alienata\",\"rank\":\"Species\",\"synonymOf\":{\"accepted\":true,\"name\":\"Pouzolzia zeylanica var. zeylanica\",\"url\":\"/taxon/urn:lsid:ipni.org:names:77226663-1\",\"fqId\":\"urn:lsid:ipni.org:names:77226663-1\"},\"url\":\"/taxon/urn:lsid:ipni.org:names:857397-1\",\"fqId\":\"urn:lsid:ipni.org:names:857397-1\"},{\"accepted\":false,\"author\":\"Bertero ex Griseb.\",\"kingdom\":\"Plantae\",\"family\":\"Urticaceae\",\"name\":\"Urtica alnifolia\",\"rank\":\"Species\",\"synonymOf\":{\"accepted\":true,\"author\":\"(L.) Blume\",\"name\":\"Trema micranthum\",\"url\":\"/taxon/urn:lsid:ipni.org:names:1018059-2\",\"fqId\":\"urn:lsid:ipni.org:names:1018059-2\"},\"url\":\"/taxon/urn:lsid:ipni.org:names:857398-1\",\"fqId\":\"urn:lsid:ipni.org:names:857398-1\"},{\"accepted\":false,\"author\":\"Deless. ex Gaudich.\",\"kingdom\":\"Plantae\",\"family\":\"Urticaceae\",\"name\":\"Urtica americana\",\"rank\":\"Species\",\"synonymOf\":{\"accepted\":true,\"author\":\"(L.) Gaudich. ex Drapiez\",\"name\":\"Laportea canadensis\",\"url\":\"/taxon/urn:lsid:ipni.org:names:30335783-2\",\"fqId\":\"urn:lsid:ipni.org:names:30335783-2\"},\"url\":\"/taxon/urn:lsid:ipni.org:names:3321367-4\",\"fqId\":\"urn:lsid:ipni.org:names:3321367-4\"},{\"accepted\":true,\"author\":\"Wall.\",\"kingdom\":\"Plantae\",\"family\":\"Urticaceae\",\"name\":\"Urtica amoena\",\"rank\":\"Species\",\"url\":\"/taxon/urn:lsid:ipni.org:names:857400-1\",\"fqId\":\"urn:lsid:ipni.org:names:857400-1\",\"images\":[{\"thumbnail\":\"//d2seqvvyy3b8p2.cloudfront.net/d5988d2b5e50c4a5a26476ebaa9bd903.jpg\",\"fullsize\":\"//d2seqvvyy3b8p2.cloudfront.net/f2d0802ec26461c46f469c4c089fe8bf.jpg\",\"caption\":\"A specimen from Kew's Herbarium\"}]},{\"accepted\":false,\"author\":\"Wedd.\",\"kingdom\":\"Plantae\",\"family\":\"Urticaceae\",\"name\":\"Urtica andicola\",\"rank\":\"Species\",\"synonymOf\":{\"accepted\":true,\"author\":\"Benth.\",\"name\":\"Urtica echinata\",\"url\":\"/taxon/urn:lsid:ipni.org:names:857552-1\",\"fqId\":\"urn:lsid:ipni.org:names:857552-1\"},\"url\":\"/taxon/urn:lsid:ipni.org:names:857401-1\",\"fqId\":\"urn:lsid:ipni.org:names:857401-1\"},{\"accepted\":false,\"author\":\"Blume\",\"kingdom\":\"Plantae\",\"family\":\"Urticaceae\",\"name\":\"Urtica angulata\",\"rank\":\"Species\",\"synonymOf\":{\"accepted\":true,\"author\":\"(Blume) Blume\",\"name\":\"Pilea angulata\",\"url\":\"/taxon/urn:lsid:ipni.org:names:855218-1\",\"fqId\":\"urn:lsid:ipni.org:names:855218-1\"},\"url\":\"/taxon/urn:lsid:ipni.org:names:857402-1\",\"fqId\":\"urn:lsid:ipni.org:names:857402-1\"},{\"accepted\":false,\"author\":\"Blume\",\"kingdom\":\"Plantae\",\"family\":\"Urticaceae\",\"name\":\"Urtica angustata\",\"rank\":\"Species\",\"synonymOf\":{\"accepted\":true,\"author\":\"(Burm.f.) Wedd.\",\"name\":\"Debregeasia longifolia\",\"url\":\"/taxon/urn:lsid:ipni.org:names:851412-1\",\"fqId\":\"urn:lsid:ipni.org:names:851412-1\"},\"url\":\"/taxon/urn:lsid:ipni.org:names:857403-1\",\"fqId\":\"urn:lsid:ipni.org:names:857403-1\"},{\"accepted\":false,\"author\":\"Fisch. ex Hornem.\",\"kingdom\":\"Plantae\",\"family\":\"Urticaceae\",\"name\":\"Urtica angustifolia\",\"rank\":\"Species\",\"synonymOf\":{\"accepted\":true,\"author\":\"Fr.\",\"name\":\"Urtica dioica var. holosericea\",\"url\":\"/taxon/urn:lsid:ipni.org:names:77253028-1\",\"fqId\":\"urn:lsid:ipni.org:names:77253028-1\"},\"url\":\"/taxon/urn:lsid:ipni.org:names:857405-1\",\"fqId\":\"urn:lsid:ipni.org:names:857405-1\"},{\"accepted\":false,\"author\":\"Buch.-Ham. ex D.Don\",\"kingdom\":\"Plantae\",\"family\":\"Urticaceae\",\"name\":\"Urtica angustifolia\",\"rank\":\"Species\",\"synonymOf\":{\"accepted\":true,\"author\":\"(Hornem.) Friis & Wilmot-Dear\",\"name\":\"Boehmeria virgata subsp. macrophylla\",\"url\":\"/taxon/urn:lsid:ipni.org:names:77133790-1\",\"fqId\":\"urn:lsid:ipni.org:names:77133790-1\"},\"url\":\"/taxon/urn:lsid:ipni.org:names:857404-1\",\"fqId\":\"urn:lsid:ipni.org:names:857404-1\"},{\"accepted\":false,\"author\":\"Wall.\",\"kingdom\":\"Plantae\",\"family\":\"Urticaceae\",\"name\":\"Urtica anisophylla\",\"rank\":\"Species\",\"synonymOf\":{\"accepted\":true,\"author\":\"Wedd.\",\"name\":\"Pilea anisophylla\",\"url\":\"/taxon/urn:lsid:ipni.org:names:855221-1\",\"fqId\":\"urn:lsid:ipni.org:names:855221-1\"},\"url\":\"/taxon/urn:lsid:ipni.org:names:857406-1\",\"fqId\":\"urn:lsid:ipni.org:names:857406-1\"},{\"accepted\":false,\"author\":\"Wall.\",\"kingdom\":\"Plantae\",\"family\":\"Urticaceae\",\"name\":\"Urtica appendiculata\",\"rank\":\"Species\",\"synonymOf\":{\"accepted\":true,\"author\":\"(Gaudich.) Miq.\",\"name\":\"Oreocnide integrifolia\",\"url\":\"/taxon/urn:lsid:ipni.org:names:854835-1\",\"fqId\":\"urn:lsid:ipni.org:names:854835-1\"},\"url\":\"/taxon/urn:lsid:ipni.org:names:857407-1\",\"fqId\":\"urn:lsid:ipni.org:names:857407-1\"}]}"